/home/renzo/rAlvaPrincipe/BookEx/Sviluppo/Bookex/src/main/java/com/dao/LibroDaoImpl.java
/home/renzo/rAlvaPrincipe/BookEx/Sviluppo/Bookex/src/main/java/com/service/PrenotazioneServiceImpl.java
/home/renzo/rAlvaPrincipe/BookEx/Sviluppo/Bookex/src/main/java/com/dao/PrenotazioneDaoImpl.java
/home/renzo/rAlvaPrincipe/BookEx/Sviluppo/Bookex/src/main/java/com/controller/TransactionController.java
/home/renzo/rAlvaPrincipe/BookEx/Sviluppo/Bookex/src/main/java/com/model/Libro.java
/home/renzo/rAlvaPrincipe/BookEx/Sviluppo/Bookex/src/main/java/com/config/SecurityConfig.java
/home/renzo/rAlvaPrincipe/BookEx/Sviluppo/Bookex/src/main/java/com/service/PrenotazioneService.java
/home/renzo/rAlvaPrincipe/BookEx/Sviluppo/Bookex/src/main/java/com/config/BookexConfig.java
/home/renzo/rAlvaPrincipe/BookEx/Sviluppo/Bookex/src/main/java/com/controller/BookController.java
/home/renzo/rAlvaPrincipe/BookEx/Sviluppo/Bookex/src/main/java/com/model/Prenotazione.java
/home/renzo/rAlvaPrincipe/BookEx/Sviluppo/Bookex/src/main/java/com/dao/LibroDao.java
/home/renzo/rAlvaPrincipe/BookEx/Sviluppo/Bookex/src/main/java/com/dao/BookRowMapper.java
/home/renzo/rAlvaPrincipe/BookEx/Sviluppo/Bookex/src/main/java/com/service/LibroService.java
/home/renzo/rAlvaPrincipe/BookEx/Sviluppo/Bookex/src/main/java/com/controller/IndexController.java
/home/renzo/rAlvaPrincipe/BookEx/Sviluppo/Bookex/src/main/java/com/dao/PrenotazioneRowMapper.java
/home/renzo/rAlvaPrincipe/BookEx/Sviluppo/Bookex/src/main/java/com/dao/PrenotazioneDao.java
/home/renzo/rAlvaPrincipe/BookEx/Sviluppo/Bookex/src/main/java/com/config/MvcConfiguration.java
/home/renzo/rAlvaPrincipe/BookEx/Sviluppo/Bookex/src/main/java/com/service/LibroServiceImpl.java
