2018-06-18 17:08:28.026 INFO  (main) [   ] o.e.j.s.Server jetty-9.3.14.v20161028
2018-06-18 17:08:28.288 INFO  (main) [   ] o.a.s.s.SolrDispatchFilter  ___      _       Welcome to Apache Solr™ version 7.0.0
2018-06-18 17:08:28.288 INFO  (main) [   ] o.a.s.s.SolrDispatchFilter / __| ___| |_ _   Starting in standalone mode on port 8983
2018-06-18 17:08:28.288 INFO  (main) [   ] o.a.s.s.SolrDispatchFilter \__ \/ _ \ | '_|  Install dir: /home/renzo/Programs/solr-7.0.0, Default config dir: /home/renzo/Programs/solr-7.0.0/server/solr/configsets/_default/conf
2018-06-18 17:08:28.298 INFO  (main) [   ] o.a.s.s.SolrDispatchFilter |___/\___/_|_|    Start time: 2018-06-18T17:08:28.289Z
2018-06-18 17:08:28.299 INFO  (main) [   ] o.a.s.s.StartupLoggingUtils Property solr.log.muteconsole given. Muting ConsoleAppender named CONSOLE
2018-06-18 17:08:28.309 INFO  (main) [   ] o.a.s.c.SolrResourceLoader Using system property solr.solr.home: /home/renzo/Programs/solr-7.0.0/server/solr
2018-06-18 17:08:28.313 INFO  (main) [   ] o.a.s.c.SolrXmlConfig Loading container configuration from /home/renzo/Programs/solr-7.0.0/server/solr/solr.xml
2018-06-18 17:08:28.700 INFO  (main) [   ] o.a.s.c.CorePropertiesLocator Found 2 core definitions underneath /home/renzo/Programs/solr-7.0.0/server/solr
2018-06-18 17:08:28.703 INFO  (main) [   ] o.a.s.c.CorePropertiesLocator Cores are: [coreProva, libriSolr]
2018-06-18 17:08:28.750 INFO  (main) [   ] o.e.j.s.Server Started @1067ms
2018-06-18 17:08:28.763 INFO  (coreLoadExecutor-6-thread-1) [   x:coreProva] o.a.s.c.SolrResourceLoader [coreProva] Added 51 libs to classloader, from paths: [/home/renzo/Programs/solr-7.0.0/contrib/clustering/lib, /home/renzo/Programs/solr-7.0.0/contrib/extraction/lib, /home/renzo/Programs/solr-7.0.0/contrib/langid/lib, /home/renzo/Programs/solr-7.0.0/contrib/velocity/lib, /home/renzo/Programs/solr-7.0.0/dist]
2018-06-18 17:08:28.763 INFO  (coreLoadExecutor-6-thread-2) [   x:libriSolr] o.a.s.c.SolrResourceLoader [libriSolr] Added 51 libs to classloader, from paths: [/home/renzo/Programs/solr-7.0.0/contrib/clustering/lib, /home/renzo/Programs/solr-7.0.0/contrib/extraction/lib, /home/renzo/Programs/solr-7.0.0/contrib/langid/lib, /home/renzo/Programs/solr-7.0.0/contrib/velocity/lib, /home/renzo/Programs/solr-7.0.0/dist]
2018-06-18 17:08:28.885 INFO  (coreLoadExecutor-6-thread-1) [   x:coreProva] o.a.s.c.SolrConfig Using Lucene MatchVersion: 7.0.0
2018-06-18 17:08:28.894 INFO  (coreLoadExecutor-6-thread-2) [   x:libriSolr] o.a.s.c.SolrConfig Using Lucene MatchVersion: 7.0.0
2018-06-18 17:08:28.995 INFO  (coreLoadExecutor-6-thread-2) [   x:libriSolr] o.a.s.s.IndexSchema [libriSolr] Schema name=schemaSolr
2018-06-18 17:08:28.999 INFO  (coreLoadExecutor-6-thread-1) [   x:coreProva] o.a.s.s.IndexSchema [coreProva] Schema name=schemaSolr
2018-06-18 17:08:29.035 WARN  (coreLoadExecutor-6-thread-1) [   x:coreProva] o.a.s.c.SolrResourceLoader Solr loaded a deprecated plugin/analysis class [solr.TrieIntField]. Please consult documentation how to replace it accordingly.
2018-06-18 17:08:29.035 WARN  (coreLoadExecutor-6-thread-2) [   x:libriSolr] o.a.s.c.SolrResourceLoader Solr loaded a deprecated plugin/analysis class [solr.TrieIntField]. Please consult documentation how to replace it accordingly.
2018-06-18 17:08:29.038 WARN  (coreLoadExecutor-6-thread-1) [   x:coreProva] o.a.s.c.SolrResourceLoader Solr loaded a deprecated plugin/analysis class [solr.TrieLongField]. Please consult documentation how to replace it accordingly.
2018-06-18 17:08:29.038 WARN  (coreLoadExecutor-6-thread-2) [   x:libriSolr] o.a.s.c.SolrResourceLoader Solr loaded a deprecated plugin/analysis class [solr.TrieLongField]. Please consult documentation how to replace it accordingly.
2018-06-18 17:08:29.055 WARN  (coreLoadExecutor-6-thread-2) [   x:libriSolr] o.a.s.c.SolrResourceLoader Solr loaded a deprecated plugin/analysis class [solr.WordDelimiterFilterFactory]. Please consult documentation how to replace it accordingly.
2018-06-18 17:08:29.097 INFO  (coreLoadExecutor-6-thread-2) [   x:libriSolr] o.a.s.s.IndexSchema Loaded schema schemaSolr/1.5 with uniqueid field isbn
2018-06-18 17:08:29.097 INFO  (coreLoadExecutor-6-thread-1) [   x:coreProva] o.a.s.s.IndexSchema Loaded schema schemaSolr/1.5 with uniqueid field idDocument
2018-06-18 17:08:29.097 INFO  (coreLoadExecutor-6-thread-2) [   x:libriSolr] o.a.s.c.CoreContainer Creating SolrCore 'libriSolr' using configuration from instancedir /home/renzo/Programs/solr-7.0.0/server/solr/libriSolr, trusted=true
2018-06-18 17:08:29.097 INFO  (coreLoadExecutor-6-thread-1) [   x:coreProva] o.a.s.c.CoreContainer Creating SolrCore 'coreProva' using configuration from instancedir /home/renzo/Programs/solr-7.0.0/server/solr/coreProva, trusted=true
2018-06-18 17:08:29.124 INFO  (coreLoadExecutor-6-thread-1) [   x:coreProva] o.a.s.c.SolrCore solr.RecoveryStrategy.Builder
2018-06-18 17:08:29.124 INFO  (coreLoadExecutor-6-thread-2) [   x:libriSolr] o.a.s.c.SolrCore solr.RecoveryStrategy.Builder
2018-06-18 17:08:29.127 INFO  (coreLoadExecutor-6-thread-2) [   x:libriSolr] o.a.s.c.SolrCore [[libriSolr] ] Opening new SolrCore at [/home/renzo/Programs/solr-7.0.0/server/solr/libriSolr], dataDir=[/home/renzo/Programs/solr-7.0.0/server/solr/libriSolr/data/]
2018-06-18 17:08:29.127 INFO  (coreLoadExecutor-6-thread-1) [   x:coreProva] o.a.s.c.SolrCore [[coreProva] ] Opening new SolrCore at [/home/renzo/Programs/solr-7.0.0/server/solr/coreProva], dataDir=[/home/renzo/Programs/solr-7.0.0/server/solr/coreProva/data/]
2018-06-18 17:08:29.155 INFO  (coreLoadExecutor-6-thread-1) [   x:coreProva] o.a.s.r.XSLTResponseWriter xsltCacheLifetimeSeconds=5
2018-06-18 17:08:29.277 INFO  (coreLoadExecutor-6-thread-2) [   x:libriSolr] o.a.s.r.XSLTResponseWriter xsltCacheLifetimeSeconds=5
2018-06-18 17:08:29.399 INFO  (coreLoadExecutor-6-thread-2) [   x:libriSolr] o.a.s.u.UpdateHandler Using UpdateLog implementation: org.apache.solr.update.UpdateLog
2018-06-18 17:08:29.399 INFO  (coreLoadExecutor-6-thread-1) [   x:coreProva] o.a.s.u.UpdateHandler Using UpdateLog implementation: org.apache.solr.update.UpdateLog
2018-06-18 17:08:29.399 INFO  (coreLoadExecutor-6-thread-2) [   x:libriSolr] o.a.s.u.UpdateLog Initializing UpdateLog: dataDir= defaultSyncLevel=FLUSH numRecordsToKeep=100 maxNumLogsToKeep=10 numVersionBuckets=65536
2018-06-18 17:08:29.399 INFO  (coreLoadExecutor-6-thread-1) [   x:coreProva] o.a.s.u.UpdateLog Initializing UpdateLog: dataDir= defaultSyncLevel=FLUSH numRecordsToKeep=100 maxNumLogsToKeep=10 numVersionBuckets=65536
2018-06-18 17:08:29.408 INFO  (coreLoadExecutor-6-thread-1) [   x:coreProva] o.a.s.u.CommitTracker Hard AutoCommit: if uncommited for 15000ms; 
2018-06-18 17:08:29.408 INFO  (coreLoadExecutor-6-thread-2) [   x:libriSolr] o.a.s.u.CommitTracker Hard AutoCommit: if uncommited for 15000ms; 
2018-06-18 17:08:29.409 INFO  (coreLoadExecutor-6-thread-1) [   x:coreProva] o.a.s.u.CommitTracker Soft AutoCommit: disabled
2018-06-18 17:08:29.409 INFO  (coreLoadExecutor-6-thread-2) [   x:libriSolr] o.a.s.u.CommitTracker Soft AutoCommit: disabled
2018-06-18 17:08:29.429 INFO  (coreLoadExecutor-6-thread-2) [   x:libriSolr] o.a.s.s.SolrIndexSearcher Opening [Searcher@5cb90d61[libriSolr] main]
2018-06-18 17:08:29.429 INFO  (coreLoadExecutor-6-thread-1) [   x:coreProva] o.a.s.s.SolrIndexSearcher Opening [Searcher@40f65c7a[coreProva] main]
2018-06-18 17:08:29.439 INFO  (coreLoadExecutor-6-thread-1) [   x:coreProva] o.a.s.r.ManagedResourceStorage File-based storage initialized to use dir: /home/renzo/Programs/solr-7.0.0/server/solr/coreProva/conf
2018-06-18 17:08:29.439 INFO  (coreLoadExecutor-6-thread-2) [   x:libriSolr] o.a.s.r.ManagedResourceStorage File-based storage initialized to use dir: /home/renzo/Programs/solr-7.0.0/server/solr/libriSolr/conf
2018-06-18 17:08:29.452 INFO  (coreLoadExecutor-6-thread-1) [   x:coreProva] o.a.s.h.c.SpellCheckComponent Initializing spell checkers
2018-06-18 17:08:29.452 INFO  (coreLoadExecutor-6-thread-2) [   x:libriSolr] o.a.s.h.c.SpellCheckComponent Initializing spell checkers
2018-06-18 17:08:29.458 INFO  (coreLoadExecutor-6-thread-2) [   x:libriSolr] o.a.s.s.DirectSolrSpellChecker init: {name=default,field=_text_,classname=solr.DirectSolrSpellChecker,distanceMeasure=internal,accuracy=0.5,maxEdits=2,minPrefix=1,maxInspections=5,minQueryLength=4,maxQueryFrequency=0.01}
2018-06-18 17:08:29.458 INFO  (coreLoadExecutor-6-thread-1) [   x:coreProva] o.a.s.s.DirectSolrSpellChecker init: {name=default,field=_text_,classname=solr.DirectSolrSpellChecker,distanceMeasure=internal,accuracy=0.5,maxEdits=2,minPrefix=1,maxInspections=5,minQueryLength=4,maxQueryFrequency=0.01}
2018-06-18 17:08:29.469 INFO  (coreLoadExecutor-6-thread-1) [   x:coreProva] o.a.s.h.ReplicationHandler Commits will be reserved for  10000
2018-06-18 17:08:29.469 INFO  (coreLoadExecutor-6-thread-2) [   x:libriSolr] o.a.s.h.ReplicationHandler Commits will be reserved for  10000
2018-06-18 17:08:29.497 INFO  (searcherExecutor-7-thread-1-processing-x:libriSolr) [   x:libriSolr] o.a.s.c.QuerySenderListener QuerySenderListener sending requests to Searcher@5cb90d61[libriSolr] main{ExitableDirectoryReader(UninvertingDirectoryReader())}
2018-06-18 17:08:29.497 INFO  (searcherExecutor-7-thread-1-processing-x:libriSolr) [   x:libriSolr] o.a.s.c.QuerySenderListener QuerySenderListener done.
2018-06-18 17:08:29.497 INFO  (searcherExecutor-7-thread-1-processing-x:libriSolr) [   x:libriSolr] o.a.s.h.c.SpellCheckComponent Loading spell index for spellchecker: default
2018-06-18 17:08:29.497 INFO  (searcherExecutor-8-thread-1-processing-x:coreProva) [   x:coreProva] o.a.s.c.QuerySenderListener QuerySenderListener sending requests to Searcher@40f65c7a[coreProva] main{ExitableDirectoryReader(UninvertingDirectoryReader())}
2018-06-18 17:08:29.498 INFO  (searcherExecutor-8-thread-1-processing-x:coreProva) [   x:coreProva] o.a.s.c.QuerySenderListener QuerySenderListener done.
2018-06-18 17:08:29.498 INFO  (searcherExecutor-8-thread-1-processing-x:coreProva) [   x:coreProva] o.a.s.h.c.SpellCheckComponent Loading spell index for spellchecker: default
2018-06-18 17:08:29.498 INFO  (coreLoadExecutor-6-thread-1) [   x:coreProva] o.a.s.u.UpdateLog Could not find max version in index or recent updates, using new clock 1603631012378574848
2018-06-18 17:08:29.501 INFO  (searcherExecutor-7-thread-1-processing-x:libriSolr) [   x:libriSolr] o.a.s.c.SolrCore [libriSolr] Registered new searcher Searcher@5cb90d61[libriSolr] main{ExitableDirectoryReader(UninvertingDirectoryReader())}
2018-06-18 17:08:29.501 INFO  (searcherExecutor-8-thread-1-processing-x:coreProva) [   x:coreProva] o.a.s.c.SolrCore [coreProva] Registered new searcher Searcher@40f65c7a[coreProva] main{ExitableDirectoryReader(UninvertingDirectoryReader())}
2018-06-18 17:08:34.889 INFO  (qtp1205044462-21) [   ] o.a.s.c.TransientSolrCoreCacheDefault Allocating transient cache for 2147483647 transient cores
2018-06-18 17:08:35.308 INFO  (qtp1205044462-17) [   ] o.a.s.s.HttpSolrCall [admin] webapp=null path=/admin/cores params={indexInfo=false&wt=json&_=1529341715167} status=0 QTime=6
2018-06-18 17:08:35.321 INFO  (qtp1205044462-22) [   ] o.a.s.s.HttpSolrCall [admin] webapp=null path=/admin/info/system params={wt=json&_=1529341715167} status=0 QTime=19
2018-06-18 17:08:37.315 INFO  (qtp1205044462-14) [   x:libriSolr] o.a.s.c.S.Request [libriSolr]  webapp=/solr path=/select params={q=*:*&_=1529341715253} hits=0 status=0 QTime=18
2018-06-18 17:08:50.917 INFO  (qtp1205044462-13) [   x:libriSolr] o.a.s.c.S.Request [libriSolr]  webapp=/solr path=/select params={q=titolo:9781603090506&start=0&rows=0&wt=javabin&version=2} hits=0 status=0 QTime=23
2018-06-18 17:08:50.944 INFO  (qtp1205044462-17) [   x:libriSolr] o.a.s.c.S.Request [libriSolr]  webapp=/solr path=/select params={q=titolo:9781603090506&start=0&rows=0&wt=javabin&version=2} hits=0 status=0 QTime=0
2018-06-18 17:09:06.829 INFO  (qtp1205044462-21) [   x:libriSolr] o.a.s.u.p.LogUpdateProcessorFactory [libriSolr]  webapp=/solr path=/update params={wt=javabin&version=2}{add=[9781603090506 (1603631051486265344)]} 0 47
2018-06-18 17:09:06.834 INFO  (qtp1205044462-38) [   x:libriSolr] o.a.s.u.DirectUpdateHandler2 start commit{_version_=1603631051528208384,optimize=false,openSearcher=true,waitSearcher=true,expungeDeletes=false,softCommit=false,prepareCommit=false}
2018-06-18 17:09:06.834 INFO  (qtp1205044462-38) [   x:libriSolr] o.a.s.u.SolrIndexWriter Calling setCommitData with IW:org.apache.solr.update.SolrIndexWriter@17af06c7 commitCommandVersion:1603631051528208384
2018-06-18 17:09:07.416 INFO  (qtp1205044462-38) [   x:libriSolr] o.a.s.s.SolrIndexSearcher Opening [Searcher@70595046[libriSolr] main]
2018-06-18 17:09:07.417 INFO  (qtp1205044462-38) [   x:libriSolr] o.a.s.u.DirectUpdateHandler2 end_commit_flush
2018-06-18 17:09:07.418 INFO  (searcherExecutor-7-thread-1-processing-x:libriSolr) [   x:libriSolr] o.a.s.c.QuerySenderListener QuerySenderListener sending requests to Searcher@70595046[libriSolr] main{ExitableDirectoryReader(UninvertingDirectoryReader(Uninverting(_0(7.0.0):C1)))}
2018-06-18 17:09:07.418 INFO  (searcherExecutor-7-thread-1-processing-x:libriSolr) [   x:libriSolr] o.a.s.c.QuerySenderListener QuerySenderListener done.
2018-06-18 17:09:07.418 INFO  (searcherExecutor-7-thread-1-processing-x:libriSolr) [   x:libriSolr] o.a.s.c.SolrCore [libriSolr] Registered new searcher Searcher@70595046[libriSolr] main{ExitableDirectoryReader(UninvertingDirectoryReader(Uninverting(_0(7.0.0):C1)))}
2018-06-18 17:09:07.418 INFO  (qtp1205044462-38) [   x:libriSolr] o.a.s.u.p.LogUpdateProcessorFactory [libriSolr]  webapp=/solr path=/update params={waitSearcher=true&commit=true&softCommit=false&wt=javabin&version=2}{commit=} 0 584
2018-06-18 17:09:37.500 INFO  (qtp1205044462-37) [   x:libriSolr] o.a.s.u.p.LogUpdateProcessorFactory [libriSolr]  webapp=/solr path=/update params={wt=javabin&version=2}{add=[1469140365 (1603631083681742848)]} 0 1
2018-06-18 17:09:37.503 INFO  (qtp1205044462-22) [   x:libriSolr] o.a.s.u.DirectUpdateHandler2 start commit{_version_=1603631083686985728,optimize=false,openSearcher=true,waitSearcher=true,expungeDeletes=false,softCommit=false,prepareCommit=false}
2018-06-18 17:09:37.503 INFO  (qtp1205044462-22) [   x:libriSolr] o.a.s.u.SolrIndexWriter Calling setCommitData with IW:org.apache.solr.update.SolrIndexWriter@17af06c7 commitCommandVersion:1603631083686985728
2018-06-18 17:09:38.081 INFO  (qtp1205044462-22) [   x:libriSolr] o.a.s.s.SolrIndexSearcher Opening [Searcher@3fc3e340[libriSolr] main]
2018-06-18 17:09:38.083 INFO  (qtp1205044462-22) [   x:libriSolr] o.a.s.u.DirectUpdateHandler2 end_commit_flush
2018-06-18 17:09:38.083 INFO  (searcherExecutor-7-thread-1-processing-x:libriSolr) [   x:libriSolr] o.a.s.c.QuerySenderListener QuerySenderListener sending requests to Searcher@3fc3e340[libriSolr] main{ExitableDirectoryReader(UninvertingDirectoryReader(Uninverting(_0(7.0.0):C1) Uninverting(_1(7.0.0):C1)))}
2018-06-18 17:09:38.083 INFO  (searcherExecutor-7-thread-1-processing-x:libriSolr) [   x:libriSolr] o.a.s.c.QuerySenderListener QuerySenderListener done.
2018-06-18 17:09:38.083 INFO  (searcherExecutor-7-thread-1-processing-x:libriSolr) [   x:libriSolr] o.a.s.c.SolrCore [libriSolr] Registered new searcher Searcher@3fc3e340[libriSolr] main{ExitableDirectoryReader(UninvertingDirectoryReader(Uninverting(_0(7.0.0):C1) Uninverting(_1(7.0.0):C1)))}
2018-06-18 17:09:38.084 INFO  (qtp1205044462-22) [   x:libriSolr] o.a.s.u.p.LogUpdateProcessorFactory [libriSolr]  webapp=/solr path=/update params={waitSearcher=true&commit=true&softCommit=false&wt=javabin&version=2}{commit=} 0 580
2018-06-18 17:09:51.369 INFO  (qtp1205044462-14) [   x:libriSolr] o.a.s.u.p.LogUpdateProcessorFactory [libriSolr]  webapp=/solr path=/update params={wt=javabin&version=2}{add=[9781468581324 (1603631098225491968)]} 0 1
2018-06-18 17:09:51.372 INFO  (qtp1205044462-15) [   x:libriSolr] o.a.s.u.DirectUpdateHandler2 start commit{_version_=1603631098229686272,optimize=false,openSearcher=true,waitSearcher=true,expungeDeletes=false,softCommit=false,prepareCommit=false}
2018-06-18 17:09:51.372 INFO  (qtp1205044462-15) [   x:libriSolr] o.a.s.u.SolrIndexWriter Calling setCommitData with IW:org.apache.solr.update.SolrIndexWriter@17af06c7 commitCommandVersion:1603631098229686272
2018-06-18 17:09:51.904 INFO  (qtp1205044462-15) [   x:libriSolr] o.a.s.s.SolrIndexSearcher Opening [Searcher@4f67a7c[libriSolr] main]
2018-06-18 17:09:51.904 INFO  (qtp1205044462-15) [   x:libriSolr] o.a.s.u.DirectUpdateHandler2 end_commit_flush
2018-06-18 17:09:51.905 INFO  (searcherExecutor-7-thread-1-processing-x:libriSolr) [   x:libriSolr] o.a.s.c.QuerySenderListener QuerySenderListener sending requests to Searcher@4f67a7c[libriSolr] main{ExitableDirectoryReader(UninvertingDirectoryReader(Uninverting(_0(7.0.0):C1) Uninverting(_1(7.0.0):C1) Uninverting(_2(7.0.0):C1)))}
2018-06-18 17:09:51.905 INFO  (searcherExecutor-7-thread-1-processing-x:libriSolr) [   x:libriSolr] o.a.s.c.QuerySenderListener QuerySenderListener done.
2018-06-18 17:09:51.905 INFO  (searcherExecutor-7-thread-1-processing-x:libriSolr) [   x:libriSolr] o.a.s.c.SolrCore [libriSolr] Registered new searcher Searcher@4f67a7c[libriSolr] main{ExitableDirectoryReader(UninvertingDirectoryReader(Uninverting(_0(7.0.0):C1) Uninverting(_1(7.0.0):C1) Uninverting(_2(7.0.0):C1)))}
2018-06-18 17:09:51.905 INFO  (qtp1205044462-15) [   x:libriSolr] o.a.s.u.p.LogUpdateProcessorFactory [libriSolr]  webapp=/solr path=/update params={waitSearcher=true&commit=true&softCommit=false&wt=javabin&version=2}{commit=} 0 532
2018-06-18 17:10:02.216 INFO  (qtp1205044462-40) [   x:libriSolr] o.a.s.c.S.Request [libriSolr]  webapp=/solr path=/select params={q=*:*&_=1529341715253} hits=3 status=0 QTime=2
2018-06-18 17:10:19.520 INFO  (qtp1205044462-13) [   x:libriSolr] o.a.s.c.S.Request [libriSolr]  webapp=/solr path=/select params={q=titolo:"days+of+freedom"&_=1529341715253} hits=0 status=0 QTime=7
2018-06-18 17:10:34.839 INFO  (qtp1205044462-17) [   x:libriSolr] o.a.s.c.S.Request [libriSolr]  webapp=/solr path=/select params={q=titolo:"days+of+"&_=1529341715253} hits=1 status=0 QTime=6
2018-06-18 17:14:34.527 INFO  (qtp1205044462-17) [   x:libriSolr] o.a.s.c.S.Request [libriSolr]  webapp=/solr path=/select params={q=titolo:"days+of+simon+and+fry"&_=1529341715253} hits=0 status=0 QTime=1
2018-06-18 17:14:46.912 INFO  (qtp1205044462-21) [   x:libriSolr] o.a.s.c.S.Request [libriSolr]  webapp=/solr path=/select params={q=titolo:"days+of+simon+and+fry"&fl=*,score&_=1529341715253} hits=0 status=0 QTime=2
2018-06-18 17:14:58.602 INFO  (qtp1205044462-15) [   x:libriSolr] o.a.s.c.S.Request [libriSolr]  webapp=/solr path=/select params={q=titolo:"days+of+simon+and+fry"&fl=*,score&_=1529341715253} hits=0 status=0 QTime=0
2018-06-18 17:14:59.577 INFO  (qtp1205044462-37) [   x:libriSolr] o.a.s.c.S.Request [libriSolr]  webapp=/solr path=/select params={q=titolo:"days+of+simon+and+fry"&fl=*,score&_=1529341715253} hits=0 status=0 QTime=0
2018-06-18 17:15:03.492 INFO  (qtp1205044462-20) [   x:libriSolr] o.a.s.c.S.Request [libriSolr]  webapp=/solr path=/select params={q=titolo:"days+of+simon+and+fry"&spellcheck=on&fl=*,score&_=1529341715253} hits=0 status=0 QTime=0
2018-06-18 17:15:22.318 INFO  (qtp1205044462-19) [   x:libriSolr] o.a.s.c.S.Request [libriSolr]  webapp=/solr path=/select params={q=titolo:"days+of+simon+and+fry"&fl=*,score&debugQuery=on&_=1529341715253} hits=0 status=0 QTime=2
2018-06-18 17:15:50.136 INFO  (qtp1205044462-38) [   x:libriSolr] o.a.s.c.S.Request [libriSolr]  webapp=/solr path=/select params={q=titolo:"days+of+simon"&fl=*,score&debugQuery=on&_=1529341715253} hits=1 status=0 QTime=2
2018-06-18 17:17:57.215 ERROR (qtp1205044462-17) [   x:libriSolr] o.a.s.h.RequestHandlerBase org.apache.solr.common.SolrException: undefined field _text_
	at org.apache.solr.schema.IndexSchema.getDynamicFieldType(IndexSchema.java:1288)
	at org.apache.solr.schema.IndexSchema$SolrQueryAnalyzer.getWrappedAnalyzer(IndexSchema.java:430)
	at org.apache.lucene.analysis.DelegatingAnalyzerWrapper$DelegatingReuseStrategy.getReusableComponents(DelegatingAnalyzerWrapper.java:84)
	at org.apache.lucene.analysis.Analyzer.tokenStream(Analyzer.java:191)
	at org.apache.lucene.util.QueryBuilder.createFieldQuery(QueryBuilder.java:240)
	at org.apache.solr.parser.SolrQueryParserBase.newFieldQuery(SolrQueryParserBase.java:445)
	at org.apache.solr.parser.QueryParser.newFieldQuery(QueryParser.java:61)
	at org.apache.solr.parser.SolrQueryParserBase.getFieldQuery(SolrQueryParserBase.java:971)
	at org.apache.solr.parser.SolrQueryParserBase.getFieldQuery(SolrQueryParserBase.java:461)
	at org.apache.solr.parser.SolrQueryParserBase.handleQuotedTerm(SolrQueryParserBase.java:714)
	at org.apache.solr.parser.QueryParser.Term(QueryParser.java:548)
	at org.apache.solr.parser.QueryParser.Clause(QueryParser.java:277)
	at org.apache.solr.parser.QueryParser.Query(QueryParser.java:161)
	at org.apache.solr.parser.QueryParser.TopLevelQuery(QueryParser.java:130)
	at org.apache.solr.parser.SolrQueryParserBase.parse(SolrQueryParserBase.java:212)
	at org.apache.solr.search.LuceneQParser.parse(LuceneQParser.java:48)
	at org.apache.solr.search.QParser.getQuery(QParser.java:168)
	at org.apache.solr.handler.component.QueryComponent.prepare(QueryComponent.java:160)
	at org.apache.solr.handler.component.SearchHandler.handleRequestBody(SearchHandler.java:276)
	at org.apache.solr.handler.RequestHandlerBase.handleRequest(RequestHandlerBase.java:177)
	at org.apache.solr.core.SolrCore.execute(SolrCore.java:2474)
	at org.apache.solr.servlet.HttpSolrCall.execute(HttpSolrCall.java:720)
	at org.apache.solr.servlet.HttpSolrCall.call(HttpSolrCall.java:526)
	at org.apache.solr.servlet.SolrDispatchFilter.doFilter(SolrDispatchFilter.java:378)
	at org.apache.solr.servlet.SolrDispatchFilter.doFilter(SolrDispatchFilter.java:322)
	at org.eclipse.jetty.servlet.ServletHandler$CachedChain.doFilter(ServletHandler.java:1691)
	at org.eclipse.jetty.servlet.ServletHandler.doHandle(ServletHandler.java:582)
	at org.eclipse.jetty.server.handler.ScopedHandler.handle(ScopedHandler.java:143)
	at org.eclipse.jetty.security.SecurityHandler.handle(SecurityHandler.java:548)
	at org.eclipse.jetty.server.session.SessionHandler.doHandle(SessionHandler.java:226)
	at org.eclipse.jetty.server.handler.ContextHandler.doHandle(ContextHandler.java:1180)
	at org.eclipse.jetty.servlet.ServletHandler.doScope(ServletHandler.java:512)
	at org.eclipse.jetty.server.session.SessionHandler.doScope(SessionHandler.java:185)
	at org.eclipse.jetty.server.handler.ContextHandler.doScope(ContextHandler.java:1112)
	at org.eclipse.jetty.server.handler.ScopedHandler.handle(ScopedHandler.java:141)
	at org.eclipse.jetty.server.handler.ContextHandlerCollection.handle(ContextHandlerCollection.java:213)
	at org.eclipse.jetty.server.handler.HandlerCollection.handle(HandlerCollection.java:119)
	at org.eclipse.jetty.server.handler.HandlerWrapper.handle(HandlerWrapper.java:134)
	at org.eclipse.jetty.rewrite.handler.RewriteHandler.handle(RewriteHandler.java:335)
	at org.eclipse.jetty.server.handler.HandlerWrapper.handle(HandlerWrapper.java:134)
	at org.eclipse.jetty.server.Server.handle(Server.java:534)
	at org.eclipse.jetty.server.HttpChannel.handle(HttpChannel.java:320)
	at org.eclipse.jetty.server.HttpConnection.onFillable(HttpConnection.java:251)
	at org.eclipse.jetty.io.AbstractConnection$ReadCallback.succeeded(AbstractConnection.java:273)
	at org.eclipse.jetty.io.FillInterest.fillable(FillInterest.java:95)
	at org.eclipse.jetty.io.SelectChannelEndPoint$2.run(SelectChannelEndPoint.java:93)
	at org.eclipse.jetty.util.thread.strategy.ExecuteProduceConsume.executeProduceConsume(ExecuteProduceConsume.java:303)
	at org.eclipse.jetty.util.thread.strategy.ExecuteProduceConsume.produceConsume(ExecuteProduceConsume.java:148)
	at org.eclipse.jetty.util.thread.strategy.ExecuteProduceConsume.run(ExecuteProduceConsume.java:136)
	at org.eclipse.jetty.util.thread.QueuedThreadPool.runJob(QueuedThreadPool.java:671)
	at org.eclipse.jetty.util.thread.QueuedThreadPool$2.run(QueuedThreadPool.java:589)
	at java.lang.Thread.run(Thread.java:748)

2018-06-18 17:17:57.215 INFO  (qtp1205044462-17) [   x:libriSolr] o.a.s.c.S.Request [libriSolr]  webapp=/solr path=/select params={q="days+of+simon"&fl=*,score&debugQuery=on&_=1529341715253} status=400 QTime=2
2018-06-18 17:18:09.761 ERROR (qtp1205044462-15) [   x:libriSolr] o.a.s.h.RequestHandlerBase org.apache.solr.common.SolrException: undefined field _text_
	at org.apache.solr.schema.IndexSchema.getDynamicFieldType(IndexSchema.java:1288)
	at org.apache.solr.schema.IndexSchema$SolrQueryAnalyzer.getWrappedAnalyzer(IndexSchema.java:430)
	at org.apache.lucene.analysis.DelegatingAnalyzerWrapper$DelegatingReuseStrategy.getReusableComponents(DelegatingAnalyzerWrapper.java:84)
	at org.apache.lucene.analysis.Analyzer.tokenStream(Analyzer.java:191)
	at org.apache.lucene.util.QueryBuilder.createFieldQuery(QueryBuilder.java:240)
	at org.apache.solr.parser.SolrQueryParserBase.newFieldQuery(SolrQueryParserBase.java:445)
	at org.apache.solr.parser.QueryParser.newFieldQuery(QueryParser.java:61)
	at org.apache.solr.parser.SolrQueryParserBase.getFieldQuery(SolrQueryParserBase.java:971)
	at org.apache.solr.parser.SolrQueryParserBase.handleBareTokenQuery(SolrQueryParserBase.java:698)
	at org.apache.solr.parser.QueryParser.Term(QueryParser.java:420)
	at org.apache.solr.parser.QueryParser.Clause(QueryParser.java:277)
	at org.apache.solr.parser.QueryParser.Query(QueryParser.java:161)
	at org.apache.solr.parser.QueryParser.TopLevelQuery(QueryParser.java:130)
	at org.apache.solr.parser.SolrQueryParserBase.parse(SolrQueryParserBase.java:212)
	at org.apache.solr.search.LuceneQParser.parse(LuceneQParser.java:48)
	at org.apache.solr.search.QParser.getQuery(QParser.java:168)
	at org.apache.solr.handler.component.QueryComponent.prepare(QueryComponent.java:160)
	at org.apache.solr.handler.component.SearchHandler.handleRequestBody(SearchHandler.java:276)
	at org.apache.solr.handler.RequestHandlerBase.handleRequest(RequestHandlerBase.java:177)
	at org.apache.solr.core.SolrCore.execute(SolrCore.java:2474)
	at org.apache.solr.servlet.HttpSolrCall.execute(HttpSolrCall.java:720)
	at org.apache.solr.servlet.HttpSolrCall.call(HttpSolrCall.java:526)
	at org.apache.solr.servlet.SolrDispatchFilter.doFilter(SolrDispatchFilter.java:378)
	at org.apache.solr.servlet.SolrDispatchFilter.doFilter(SolrDispatchFilter.java:322)
	at org.eclipse.jetty.servlet.ServletHandler$CachedChain.doFilter(ServletHandler.java:1691)
	at org.eclipse.jetty.servlet.ServletHandler.doHandle(ServletHandler.java:582)
	at org.eclipse.jetty.server.handler.ScopedHandler.handle(ScopedHandler.java:143)
	at org.eclipse.jetty.security.SecurityHandler.handle(SecurityHandler.java:548)
	at org.eclipse.jetty.server.session.SessionHandler.doHandle(SessionHandler.java:226)
	at org.eclipse.jetty.server.handler.ContextHandler.doHandle(ContextHandler.java:1180)
	at org.eclipse.jetty.servlet.ServletHandler.doScope(ServletHandler.java:512)
	at org.eclipse.jetty.server.session.SessionHandler.doScope(SessionHandler.java:185)
	at org.eclipse.jetty.server.handler.ContextHandler.doScope(ContextHandler.java:1112)
	at org.eclipse.jetty.server.handler.ScopedHandler.handle(ScopedHandler.java:141)
	at org.eclipse.jetty.server.handler.ContextHandlerCollection.handle(ContextHandlerCollection.java:213)
	at org.eclipse.jetty.server.handler.HandlerCollection.handle(HandlerCollection.java:119)
	at org.eclipse.jetty.server.handler.HandlerWrapper.handle(HandlerWrapper.java:134)
	at org.eclipse.jetty.rewrite.handler.RewriteHandler.handle(RewriteHandler.java:335)
	at org.eclipse.jetty.server.handler.HandlerWrapper.handle(HandlerWrapper.java:134)
	at org.eclipse.jetty.server.Server.handle(Server.java:534)
	at org.eclipse.jetty.server.HttpChannel.handle(HttpChannel.java:320)
	at org.eclipse.jetty.server.HttpConnection.onFillable(HttpConnection.java:251)
	at org.eclipse.jetty.io.AbstractConnection$ReadCallback.succeeded(AbstractConnection.java:273)
	at org.eclipse.jetty.io.FillInterest.fillable(FillInterest.java:95)
	at org.eclipse.jetty.io.SelectChannelEndPoint$2.run(SelectChannelEndPoint.java:93)
	at org.eclipse.jetty.util.thread.strategy.ExecuteProduceConsume.executeProduceConsume(ExecuteProduceConsume.java:303)
	at org.eclipse.jetty.util.thread.strategy.ExecuteProduceConsume.produceConsume(ExecuteProduceConsume.java:148)
	at org.eclipse.jetty.util.thread.strategy.ExecuteProduceConsume.run(ExecuteProduceConsume.java:136)
	at org.eclipse.jetty.util.thread.QueuedThreadPool.runJob(QueuedThreadPool.java:671)
	at org.eclipse.jetty.util.thread.QueuedThreadPool$2.run(QueuedThreadPool.java:589)
	at java.lang.Thread.run(Thread.java:748)

2018-06-18 17:18:09.761 INFO  (qtp1205044462-15) [   x:libriSolr] o.a.s.c.S.Request [libriSolr]  webapp=/solr path=/select params={q=simon&fl=*,score&debugQuery=on&_=1529341715253} status=400 QTime=0
2018-06-18 17:18:12.482 ERROR (qtp1205044462-22) [   x:libriSolr] o.a.s.h.RequestHandlerBase org.apache.solr.common.SolrException: undefined field _text_
	at org.apache.solr.schema.IndexSchema.getDynamicFieldType(IndexSchema.java:1288)
	at org.apache.solr.schema.IndexSchema$SolrQueryAnalyzer.getWrappedAnalyzer(IndexSchema.java:430)
	at org.apache.lucene.analysis.DelegatingAnalyzerWrapper$DelegatingReuseStrategy.getReusableComponents(DelegatingAnalyzerWrapper.java:84)
	at org.apache.lucene.analysis.Analyzer.tokenStream(Analyzer.java:191)
	at org.apache.lucene.util.QueryBuilder.createFieldQuery(QueryBuilder.java:240)
	at org.apache.solr.parser.SolrQueryParserBase.newFieldQuery(SolrQueryParserBase.java:445)
	at org.apache.solr.parser.QueryParser.newFieldQuery(QueryParser.java:61)
	at org.apache.solr.parser.SolrQueryParserBase.getFieldQuery(SolrQueryParserBase.java:971)
	at org.apache.solr.parser.SolrQueryParserBase.handleBareTokenQuery(SolrQueryParserBase.java:698)
	at org.apache.solr.parser.QueryParser.Term(QueryParser.java:420)
	at org.apache.solr.parser.QueryParser.Clause(QueryParser.java:277)
	at org.apache.solr.parser.QueryParser.Query(QueryParser.java:161)
	at org.apache.solr.parser.QueryParser.TopLevelQuery(QueryParser.java:130)
	at org.apache.solr.parser.SolrQueryParserBase.parse(SolrQueryParserBase.java:212)
	at org.apache.solr.search.LuceneQParser.parse(LuceneQParser.java:48)
	at org.apache.solr.search.QParser.getQuery(QParser.java:168)
	at org.apache.solr.handler.component.QueryComponent.prepare(QueryComponent.java:160)
	at org.apache.solr.handler.component.SearchHandler.handleRequestBody(SearchHandler.java:276)
	at org.apache.solr.handler.RequestHandlerBase.handleRequest(RequestHandlerBase.java:177)
	at org.apache.solr.core.SolrCore.execute(SolrCore.java:2474)
	at org.apache.solr.servlet.HttpSolrCall.execute(HttpSolrCall.java:720)
	at org.apache.solr.servlet.HttpSolrCall.call(HttpSolrCall.java:526)
	at org.apache.solr.servlet.SolrDispatchFilter.doFilter(SolrDispatchFilter.java:378)
	at org.apache.solr.servlet.SolrDispatchFilter.doFilter(SolrDispatchFilter.java:322)
	at org.eclipse.jetty.servlet.ServletHandler$CachedChain.doFilter(ServletHandler.java:1691)
	at org.eclipse.jetty.servlet.ServletHandler.doHandle(ServletHandler.java:582)
	at org.eclipse.jetty.server.handler.ScopedHandler.handle(ScopedHandler.java:143)
	at org.eclipse.jetty.security.SecurityHandler.handle(SecurityHandler.java:548)
	at org.eclipse.jetty.server.session.SessionHandler.doHandle(SessionHandler.java:226)
	at org.eclipse.jetty.server.handler.ContextHandler.doHandle(ContextHandler.java:1180)
	at org.eclipse.jetty.servlet.ServletHandler.doScope(ServletHandler.java:512)
	at org.eclipse.jetty.server.session.SessionHandler.doScope(SessionHandler.java:185)
	at org.eclipse.jetty.server.handler.ContextHandler.doScope(ContextHandler.java:1112)
	at org.eclipse.jetty.server.handler.ScopedHandler.handle(ScopedHandler.java:141)
	at org.eclipse.jetty.server.handler.ContextHandlerCollection.handle(ContextHandlerCollection.java:213)
	at org.eclipse.jetty.server.handler.HandlerCollection.handle(HandlerCollection.java:119)
	at org.eclipse.jetty.server.handler.HandlerWrapper.handle(HandlerWrapper.java:134)
	at org.eclipse.jetty.rewrite.handler.RewriteHandler.handle(RewriteHandler.java:335)
	at org.eclipse.jetty.server.handler.HandlerWrapper.handle(HandlerWrapper.java:134)
	at org.eclipse.jetty.server.Server.handle(Server.java:534)
	at org.eclipse.jetty.server.HttpChannel.handle(HttpChannel.java:320)
	at org.eclipse.jetty.server.HttpConnection.onFillable(HttpConnection.java:251)
	at org.eclipse.jetty.io.AbstractConnection$ReadCallback.succeeded(AbstractConnection.java:273)
	at org.eclipse.jetty.io.FillInterest.fillable(FillInterest.java:95)
	at org.eclipse.jetty.io.SelectChannelEndPoint$2.run(SelectChannelEndPoint.java:93)
	at org.eclipse.jetty.util.thread.strategy.ExecuteProduceConsume.executeProduceConsume(ExecuteProduceConsume.java:303)
	at org.eclipse.jetty.util.thread.strategy.ExecuteProduceConsume.produceConsume(ExecuteProduceConsume.java:148)
	at org.eclipse.jetty.util.thread.strategy.ExecuteProduceConsume.run(ExecuteProduceConsume.java:136)
	at org.eclipse.jetty.util.thread.QueuedThreadPool.runJob(QueuedThreadPool.java:671)
	at org.eclipse.jetty.util.thread.QueuedThreadPool$2.run(QueuedThreadPool.java:589)
	at java.lang.Thread.run(Thread.java:748)

2018-06-18 17:18:12.482 INFO  (qtp1205044462-22) [   x:libriSolr] o.a.s.c.S.Request [libriSolr]  webapp=/solr path=/select params={q=simon&fl=*,score&debugQuery=on} status=400 QTime=0
2018-06-18 17:18:45.511 ERROR (qtp1205044462-19) [   x:libriSolr] o.a.s.h.RequestHandlerBase org.apache.solr.common.SolrException: undefined field _text_
	at org.apache.solr.schema.IndexSchema.getDynamicFieldType(IndexSchema.java:1288)
	at org.apache.solr.schema.IndexSchema$SolrQueryAnalyzer.getWrappedAnalyzer(IndexSchema.java:430)
	at org.apache.lucene.analysis.DelegatingAnalyzerWrapper$DelegatingReuseStrategy.getReusableComponents(DelegatingAnalyzerWrapper.java:84)
	at org.apache.lucene.analysis.Analyzer.tokenStream(Analyzer.java:191)
	at org.apache.lucene.util.QueryBuilder.createFieldQuery(QueryBuilder.java:240)
	at org.apache.solr.parser.SolrQueryParserBase.newFieldQuery(SolrQueryParserBase.java:445)
	at org.apache.solr.parser.QueryParser.newFieldQuery(QueryParser.java:61)
	at org.apache.solr.parser.SolrQueryParserBase.getFieldQuery(SolrQueryParserBase.java:971)
	at org.apache.solr.parser.SolrQueryParserBase.handleBareTokenQuery(SolrQueryParserBase.java:698)
	at org.apache.solr.parser.QueryParser.Term(QueryParser.java:420)
	at org.apache.solr.parser.QueryParser.Clause(QueryParser.java:277)
	at org.apache.solr.parser.QueryParser.Query(QueryParser.java:161)
	at org.apache.solr.parser.QueryParser.TopLevelQuery(QueryParser.java:130)
	at org.apache.solr.parser.SolrQueryParserBase.parse(SolrQueryParserBase.java:212)
	at org.apache.solr.search.LuceneQParser.parse(LuceneQParser.java:48)
	at org.apache.solr.search.QParser.getQuery(QParser.java:168)
	at org.apache.solr.handler.component.QueryComponent.prepare(QueryComponent.java:160)
	at org.apache.solr.handler.component.SearchHandler.handleRequestBody(SearchHandler.java:269)
	at org.apache.solr.handler.RequestHandlerBase.handleRequest(RequestHandlerBase.java:177)
	at org.apache.solr.core.SolrCore.execute(SolrCore.java:2474)
	at org.apache.solr.servlet.HttpSolrCall.execute(HttpSolrCall.java:720)
	at org.apache.solr.servlet.HttpSolrCall.call(HttpSolrCall.java:526)
	at org.apache.solr.servlet.SolrDispatchFilter.doFilter(SolrDispatchFilter.java:378)
	at org.apache.solr.servlet.SolrDispatchFilter.doFilter(SolrDispatchFilter.java:322)
	at org.eclipse.jetty.servlet.ServletHandler$CachedChain.doFilter(ServletHandler.java:1691)
	at org.eclipse.jetty.servlet.ServletHandler.doHandle(ServletHandler.java:582)
	at org.eclipse.jetty.server.handler.ScopedHandler.handle(ScopedHandler.java:143)
	at org.eclipse.jetty.security.SecurityHandler.handle(SecurityHandler.java:548)
	at org.eclipse.jetty.server.session.SessionHandler.doHandle(SessionHandler.java:226)
	at org.eclipse.jetty.server.handler.ContextHandler.doHandle(ContextHandler.java:1180)
	at org.eclipse.jetty.servlet.ServletHandler.doScope(ServletHandler.java:512)
	at org.eclipse.jetty.server.session.SessionHandler.doScope(SessionHandler.java:185)
	at org.eclipse.jetty.server.handler.ContextHandler.doScope(ContextHandler.java:1112)
	at org.eclipse.jetty.server.handler.ScopedHandler.handle(ScopedHandler.java:141)
	at org.eclipse.jetty.server.handler.ContextHandlerCollection.handle(ContextHandlerCollection.java:213)
	at org.eclipse.jetty.server.handler.HandlerCollection.handle(HandlerCollection.java:119)
	at org.eclipse.jetty.server.handler.HandlerWrapper.handle(HandlerWrapper.java:134)
	at org.eclipse.jetty.rewrite.handler.RewriteHandler.handle(RewriteHandler.java:335)
	at org.eclipse.jetty.server.handler.HandlerWrapper.handle(HandlerWrapper.java:134)
	at org.eclipse.jetty.server.Server.handle(Server.java:534)
	at org.eclipse.jetty.server.HttpChannel.handle(HttpChannel.java:320)
	at org.eclipse.jetty.server.HttpConnection.onFillable(HttpConnection.java:251)
	at org.eclipse.jetty.io.AbstractConnection$ReadCallback.succeeded(AbstractConnection.java:273)
	at org.eclipse.jetty.io.FillInterest.fillable(FillInterest.java:95)
	at org.eclipse.jetty.io.SelectChannelEndPoint$2.run(SelectChannelEndPoint.java:93)
	at org.eclipse.jetty.util.thread.strategy.ExecuteProduceConsume.executeProduceConsume(ExecuteProduceConsume.java:303)
	at org.eclipse.jetty.util.thread.strategy.ExecuteProduceConsume.produceConsume(ExecuteProduceConsume.java:148)
	at org.eclipse.jetty.util.thread.strategy.ExecuteProduceConsume.run(ExecuteProduceConsume.java:136)
	at org.eclipse.jetty.util.thread.QueuedThreadPool.runJob(QueuedThreadPool.java:671)
	at org.eclipse.jetty.util.thread.QueuedThreadPool$2.run(QueuedThreadPool.java:589)
	at java.lang.Thread.run(Thread.java:748)

2018-06-18 17:18:45.511 INFO  (qtp1205044462-19) [   x:libriSolr] o.a.s.c.S.Request [libriSolr]  webapp=/solr path=/query params={q=simon} status=400 QTime=0
2018-06-18 17:19:33.562 ERROR (qtp1205044462-15) [   x:libriSolr] o.a.s.h.RequestHandlerBase org.apache.solr.common.SolrException: undefined field _text_
	at org.apache.solr.schema.IndexSchema.getDynamicFieldType(IndexSchema.java:1288)
	at org.apache.solr.schema.IndexSchema$SolrQueryAnalyzer.getWrappedAnalyzer(IndexSchema.java:430)
	at org.apache.lucene.analysis.DelegatingAnalyzerWrapper$DelegatingReuseStrategy.getReusableComponents(DelegatingAnalyzerWrapper.java:84)
	at org.apache.lucene.analysis.Analyzer.tokenStream(Analyzer.java:191)
	at org.apache.lucene.util.QueryBuilder.createFieldQuery(QueryBuilder.java:240)
	at org.apache.solr.parser.SolrQueryParserBase.newFieldQuery(SolrQueryParserBase.java:445)
	at org.apache.solr.parser.QueryParser.newFieldQuery(QueryParser.java:61)
	at org.apache.solr.parser.SolrQueryParserBase.getFieldQuery(SolrQueryParserBase.java:971)
	at org.apache.solr.parser.SolrQueryParserBase.handleBareTokenQuery(SolrQueryParserBase.java:698)
	at org.apache.solr.parser.QueryParser.Term(QueryParser.java:420)
	at org.apache.solr.parser.QueryParser.Clause(QueryParser.java:277)
	at org.apache.solr.parser.QueryParser.Query(QueryParser.java:161)
	at org.apache.solr.parser.QueryParser.TopLevelQuery(QueryParser.java:130)
	at org.apache.solr.parser.SolrQueryParserBase.parse(SolrQueryParserBase.java:212)
	at org.apache.solr.search.LuceneQParser.parse(LuceneQParser.java:48)
	at org.apache.solr.search.QParser.getQuery(QParser.java:168)
	at org.apache.solr.handler.component.QueryComponent.prepare(QueryComponent.java:160)
	at org.apache.solr.handler.component.SearchHandler.handleRequestBody(SearchHandler.java:269)
	at org.apache.solr.handler.RequestHandlerBase.handleRequest(RequestHandlerBase.java:177)
	at org.apache.solr.core.SolrCore.execute(SolrCore.java:2474)
	at org.apache.solr.servlet.HttpSolrCall.execute(HttpSolrCall.java:720)
	at org.apache.solr.servlet.HttpSolrCall.call(HttpSolrCall.java:526)
	at org.apache.solr.servlet.SolrDispatchFilter.doFilter(SolrDispatchFilter.java:378)
	at org.apache.solr.servlet.SolrDispatchFilter.doFilter(SolrDispatchFilter.java:322)
	at org.eclipse.jetty.servlet.ServletHandler$CachedChain.doFilter(ServletHandler.java:1691)
	at org.eclipse.jetty.servlet.ServletHandler.doHandle(ServletHandler.java:582)
	at org.eclipse.jetty.server.handler.ScopedHandler.handle(ScopedHandler.java:143)
	at org.eclipse.jetty.security.SecurityHandler.handle(SecurityHandler.java:548)
	at org.eclipse.jetty.server.session.SessionHandler.doHandle(SessionHandler.java:226)
	at org.eclipse.jetty.server.handler.ContextHandler.doHandle(ContextHandler.java:1180)
	at org.eclipse.jetty.servlet.ServletHandler.doScope(ServletHandler.java:512)
	at org.eclipse.jetty.server.session.SessionHandler.doScope(SessionHandler.java:185)
	at org.eclipse.jetty.server.handler.ContextHandler.doScope(ContextHandler.java:1112)
	at org.eclipse.jetty.server.handler.ScopedHandler.handle(ScopedHandler.java:141)
	at org.eclipse.jetty.server.handler.ContextHandlerCollection.handle(ContextHandlerCollection.java:213)
	at org.eclipse.jetty.server.handler.HandlerCollection.handle(HandlerCollection.java:119)
	at org.eclipse.jetty.server.handler.HandlerWrapper.handle(HandlerWrapper.java:134)
	at org.eclipse.jetty.rewrite.handler.RewriteHandler.handle(RewriteHandler.java:335)
	at org.eclipse.jetty.server.handler.HandlerWrapper.handle(HandlerWrapper.java:134)
	at org.eclipse.jetty.server.Server.handle(Server.java:534)
	at org.eclipse.jetty.server.HttpChannel.handle(HttpChannel.java:320)
	at org.eclipse.jetty.server.HttpConnection.onFillable(HttpConnection.java:251)
	at org.eclipse.jetty.io.AbstractConnection$ReadCallback.succeeded(AbstractConnection.java:273)
	at org.eclipse.jetty.io.FillInterest.fillable(FillInterest.java:95)
	at org.eclipse.jetty.io.SelectChannelEndPoint$2.run(SelectChannelEndPoint.java:93)
	at org.eclipse.jetty.util.thread.strategy.ExecuteProduceConsume.executeProduceConsume(ExecuteProduceConsume.java:303)
	at org.eclipse.jetty.util.thread.strategy.ExecuteProduceConsume.produceConsume(ExecuteProduceConsume.java:148)
	at org.eclipse.jetty.util.thread.strategy.ExecuteProduceConsume.run(ExecuteProduceConsume.java:136)
	at org.eclipse.jetty.util.thread.QueuedThreadPool.runJob(QueuedThreadPool.java:671)
	at org.eclipse.jetty.util.thread.QueuedThreadPool$2.run(QueuedThreadPool.java:589)
	at java.lang.Thread.run(Thread.java:748)

2018-06-18 17:19:33.562 INFO  (qtp1205044462-15) [   x:libriSolr] o.a.s.c.S.Request [libriSolr]  webapp=/solr path=/query params={q=simon} status=400 QTime=0
2018-06-18 17:19:34.508 ERROR (qtp1205044462-37) [   x:libriSolr] o.a.s.h.RequestHandlerBase org.apache.solr.common.SolrException: undefined field _text_
	at org.apache.solr.schema.IndexSchema.getDynamicFieldType(IndexSchema.java:1288)
	at org.apache.solr.schema.IndexSchema$SolrQueryAnalyzer.getWrappedAnalyzer(IndexSchema.java:430)
	at org.apache.lucene.analysis.DelegatingAnalyzerWrapper$DelegatingReuseStrategy.getReusableComponents(DelegatingAnalyzerWrapper.java:84)
	at org.apache.lucene.analysis.Analyzer.tokenStream(Analyzer.java:191)
	at org.apache.lucene.util.QueryBuilder.createFieldQuery(QueryBuilder.java:240)
	at org.apache.solr.parser.SolrQueryParserBase.newFieldQuery(SolrQueryParserBase.java:445)
	at org.apache.solr.parser.QueryParser.newFieldQuery(QueryParser.java:61)
	at org.apache.solr.parser.SolrQueryParserBase.getFieldQuery(SolrQueryParserBase.java:971)
	at org.apache.solr.parser.SolrQueryParserBase.handleBareTokenQuery(SolrQueryParserBase.java:698)
	at org.apache.solr.parser.QueryParser.Term(QueryParser.java:420)
	at org.apache.solr.parser.QueryParser.Clause(QueryParser.java:277)
	at org.apache.solr.parser.QueryParser.Query(QueryParser.java:161)
	at org.apache.solr.parser.QueryParser.TopLevelQuery(QueryParser.java:130)
	at org.apache.solr.parser.SolrQueryParserBase.parse(SolrQueryParserBase.java:212)
	at org.apache.solr.search.LuceneQParser.parse(LuceneQParser.java:48)
	at org.apache.solr.search.QParser.getQuery(QParser.java:168)
	at org.apache.solr.handler.component.QueryComponent.prepare(QueryComponent.java:160)
	at org.apache.solr.handler.component.SearchHandler.handleRequestBody(SearchHandler.java:276)
	at org.apache.solr.handler.RequestHandlerBase.handleRequest(RequestHandlerBase.java:177)
	at org.apache.solr.core.SolrCore.execute(SolrCore.java:2474)
	at org.apache.solr.servlet.HttpSolrCall.execute(HttpSolrCall.java:720)
	at org.apache.solr.servlet.HttpSolrCall.call(HttpSolrCall.java:526)
	at org.apache.solr.servlet.SolrDispatchFilter.doFilter(SolrDispatchFilter.java:378)
	at org.apache.solr.servlet.SolrDispatchFilter.doFilter(SolrDispatchFilter.java:322)
	at org.eclipse.jetty.servlet.ServletHandler$CachedChain.doFilter(ServletHandler.java:1691)
	at org.eclipse.jetty.servlet.ServletHandler.doHandle(ServletHandler.java:582)
	at org.eclipse.jetty.server.handler.ScopedHandler.handle(ScopedHandler.java:143)
	at org.eclipse.jetty.security.SecurityHandler.handle(SecurityHandler.java:548)
	at org.eclipse.jetty.server.session.SessionHandler.doHandle(SessionHandler.java:226)
	at org.eclipse.jetty.server.handler.ContextHandler.doHandle(ContextHandler.java:1180)
	at org.eclipse.jetty.servlet.ServletHandler.doScope(ServletHandler.java:512)
	at org.eclipse.jetty.server.session.SessionHandler.doScope(SessionHandler.java:185)
	at org.eclipse.jetty.server.handler.ContextHandler.doScope(ContextHandler.java:1112)
	at org.eclipse.jetty.server.handler.ScopedHandler.handle(ScopedHandler.java:141)
	at org.eclipse.jetty.server.handler.ContextHandlerCollection.handle(ContextHandlerCollection.java:213)
	at org.eclipse.jetty.server.handler.HandlerCollection.handle(HandlerCollection.java:119)
	at org.eclipse.jetty.server.handler.HandlerWrapper.handle(HandlerWrapper.java:134)
	at org.eclipse.jetty.rewrite.handler.RewriteHandler.handle(RewriteHandler.java:335)
	at org.eclipse.jetty.server.handler.HandlerWrapper.handle(HandlerWrapper.java:134)
	at org.eclipse.jetty.server.Server.handle(Server.java:534)
	at org.eclipse.jetty.server.HttpChannel.handle(HttpChannel.java:320)
	at org.eclipse.jetty.server.HttpConnection.onFillable(HttpConnection.java:251)
	at org.eclipse.jetty.io.AbstractConnection$ReadCallback.succeeded(AbstractConnection.java:273)
	at org.eclipse.jetty.io.FillInterest.fillable(FillInterest.java:95)
	at org.eclipse.jetty.io.SelectChannelEndPoint$2.run(SelectChannelEndPoint.java:93)
	at org.eclipse.jetty.util.thread.strategy.ExecuteProduceConsume.executeProduceConsume(ExecuteProduceConsume.java:303)
	at org.eclipse.jetty.util.thread.strategy.ExecuteProduceConsume.produceConsume(ExecuteProduceConsume.java:148)
	at org.eclipse.jetty.util.thread.strategy.ExecuteProduceConsume.run(ExecuteProduceConsume.java:136)
	at org.eclipse.jetty.util.thread.QueuedThreadPool.runJob(QueuedThreadPool.java:671)
	at org.eclipse.jetty.util.thread.QueuedThreadPool$2.run(QueuedThreadPool.java:589)
	at java.lang.Thread.run(Thread.java:748)

2018-06-18 17:19:34.508 INFO  (qtp1205044462-37) [   x:libriSolr] o.a.s.c.S.Request [libriSolr]  webapp=/solr path=/select params={q=simon&fl=*,score&debugQuery=on} status=400 QTime=0
2018-06-18 17:25:55.643 INFO  (qtp1205044462-39) [   ] o.a.s.s.HttpSolrCall [admin] webapp=null path=/admin/cores params={indexInfo=false&wt=json&_=1529342755487} status=0 QTime=0
2018-06-18 17:25:55.648 INFO  (qtp1205044462-22) [   ] o.a.s.s.HttpSolrCall [admin] webapp=null path=/admin/info/system params={wt=json&_=1529342755487} status=0 QTime=6
2018-06-18 17:25:58.045 INFO  (qtp1205044462-19) [   x:libriSolr] o.a.s.c.S.Request [libriSolr]  webapp=/solr path=/select params={q=*:*&_=1529342755590} hits=3 status=0 QTime=0
2018-06-18 17:28:05.376 INFO  (qtp1205044462-17) [   x:libriSolr] o.a.s.c.S.Request [libriSolr]  webapp=/solr path=/select params={q=titolo:"120d+days+of+sodom"&_=1529342755590} hits=0 status=0 QTime=3
2018-06-18 17:28:17.941 INFO  (qtp1205044462-38) [   x:libriSolr] o.a.s.c.S.Request [libriSolr]  webapp=/solr path=/select params={q=titolo:"120d+days+of+sodom"&debugQuery=on&_=1529342755590} hits=0 status=0 QTime=1
2018-06-18 17:28:24.930 INFO  (qtp1205044462-37) [   x:libriSolr] o.a.s.c.S.Request [libriSolr]  webapp=/solr path=/select params={q=titolo:"120d+days+of+sodom"&debugQuery=on} hits=0 status=0 QTime=0
2018-06-18 17:28:31.592 ERROR (qtp1205044462-22) [   x:libriSolr] o.a.s.h.RequestHandlerBase org.apache.solr.common.SolrException: undefined field _text_
	at org.apache.solr.schema.IndexSchema.getDynamicFieldType(IndexSchema.java:1288)
	at org.apache.solr.schema.IndexSchema$SolrQueryAnalyzer.getWrappedAnalyzer(IndexSchema.java:430)
	at org.apache.lucene.analysis.DelegatingAnalyzerWrapper$DelegatingReuseStrategy.getReusableComponents(DelegatingAnalyzerWrapper.java:84)
	at org.apache.lucene.analysis.Analyzer.tokenStream(Analyzer.java:191)
	at org.apache.lucene.util.QueryBuilder.createFieldQuery(QueryBuilder.java:240)
	at org.apache.solr.parser.SolrQueryParserBase.newFieldQuery(SolrQueryParserBase.java:445)
	at org.apache.solr.parser.QueryParser.newFieldQuery(QueryParser.java:61)
	at org.apache.solr.parser.SolrQueryParserBase.getFieldQuery(SolrQueryParserBase.java:1038)
	at org.apache.solr.parser.QueryParser.MultiTerm(QueryParser.java:592)
	at org.apache.solr.parser.QueryParser.Query(QueryParser.java:198)
	at org.apache.solr.parser.QueryParser.TopLevelQuery(QueryParser.java:130)
	at org.apache.solr.parser.SolrQueryParserBase.parse(SolrQueryParserBase.java:212)
	at org.apache.solr.search.LuceneQParser.parse(LuceneQParser.java:48)
	at org.apache.solr.search.QParser.getQuery(QParser.java:168)
	at org.apache.solr.handler.component.QueryComponent.prepare(QueryComponent.java:160)
	at org.apache.solr.handler.component.SearchHandler.handleRequestBody(SearchHandler.java:276)
	at org.apache.solr.handler.RequestHandlerBase.handleRequest(RequestHandlerBase.java:177)
	at org.apache.solr.core.SolrCore.execute(SolrCore.java:2474)
	at org.apache.solr.servlet.HttpSolrCall.execute(HttpSolrCall.java:720)
	at org.apache.solr.servlet.HttpSolrCall.call(HttpSolrCall.java:526)
	at org.apache.solr.servlet.SolrDispatchFilter.doFilter(SolrDispatchFilter.java:378)
	at org.apache.solr.servlet.SolrDispatchFilter.doFilter(SolrDispatchFilter.java:322)
	at org.eclipse.jetty.servlet.ServletHandler$CachedChain.doFilter(ServletHandler.java:1691)
	at org.eclipse.jetty.servlet.ServletHandler.doHandle(ServletHandler.java:582)
	at org.eclipse.jetty.server.handler.ScopedHandler.handle(ScopedHandler.java:143)
	at org.eclipse.jetty.security.SecurityHandler.handle(SecurityHandler.java:548)
	at org.eclipse.jetty.server.session.SessionHandler.doHandle(SessionHandler.java:226)
	at org.eclipse.jetty.server.handler.ContextHandler.doHandle(ContextHandler.java:1180)
	at org.eclipse.jetty.servlet.ServletHandler.doScope(ServletHandler.java:512)
	at org.eclipse.jetty.server.session.SessionHandler.doScope(SessionHandler.java:185)
	at org.eclipse.jetty.server.handler.ContextHandler.doScope(ContextHandler.java:1112)
	at org.eclipse.jetty.server.handler.ScopedHandler.handle(ScopedHandler.java:141)
	at org.eclipse.jetty.server.handler.ContextHandlerCollection.handle(ContextHandlerCollection.java:213)
	at org.eclipse.jetty.server.handler.HandlerCollection.handle(HandlerCollection.java:119)
	at org.eclipse.jetty.server.handler.HandlerWrapper.handle(HandlerWrapper.java:134)
	at org.eclipse.jetty.rewrite.handler.RewriteHandler.handle(RewriteHandler.java:335)
	at org.eclipse.jetty.server.handler.HandlerWrapper.handle(HandlerWrapper.java:134)
	at org.eclipse.jetty.server.Server.handle(Server.java:534)
	at org.eclipse.jetty.server.HttpChannel.handle(HttpChannel.java:320)
	at org.eclipse.jetty.server.HttpConnection.onFillable(HttpConnection.java:251)
	at org.eclipse.jetty.io.AbstractConnection$ReadCallback.succeeded(AbstractConnection.java:273)
	at org.eclipse.jetty.io.FillInterest.fillable(FillInterest.java:95)
	at org.eclipse.jetty.io.SelectChannelEndPoint$2.run(SelectChannelEndPoint.java:93)
	at org.eclipse.jetty.util.thread.strategy.ExecuteProduceConsume.executeProduceConsume(ExecuteProduceConsume.java:303)
	at org.eclipse.jetty.util.thread.strategy.ExecuteProduceConsume.produceConsume(ExecuteProduceConsume.java:148)
	at org.eclipse.jetty.util.thread.strategy.ExecuteProduceConsume.run(ExecuteProduceConsume.java:136)
	at org.eclipse.jetty.util.thread.QueuedThreadPool.runJob(QueuedThreadPool.java:671)
	at org.eclipse.jetty.util.thread.QueuedThreadPool$2.run(QueuedThreadPool.java:589)
	at java.lang.Thread.run(Thread.java:748)

2018-06-18 17:28:31.593 INFO  (qtp1205044462-22) [   x:libriSolr] o.a.s.c.S.Request [libriSolr]  webapp=/solr path=/select params={q=titolo:+120+days+of+sodom&debugQuery=on} status=400 QTime=1
2018-06-18 17:28:52.024 INFO  (qtp1205044462-19) [   x:libriSolr] o.a.s.c.S.Request [libriSolr]  webapp=/solr path=/select params={q=titolo:+120\+days\+of\+sodom&debugQuery=on} hits=3 status=0 QTime=8
2018-06-18 17:29:18.174 INFO  (qtp1205044462-20) [   x:libriSolr] o.a.s.c.S.Request [libriSolr]  webapp=/solr path=/select params={q=titolo:ciao\+come\+va&debugQuery=on} hits=0 status=0 QTime=1
2018-06-18 17:29:28.675 INFO  (qtp1205044462-17) [   x:libriSolr] o.a.s.c.S.Request [libriSolr]  webapp=/solr path=/select params={q=titolo:ciao\+come\+120&debugQuery=on} hits=1 status=0 QTime=2
2018-06-18 17:29:41.924 ERROR (qtp1205044462-38) [   x:libriSolr] o.a.s.h.RequestHandlerBase org.apache.solr.common.SolrException: undefined field _text_
	at org.apache.solr.schema.IndexSchema.getDynamicFieldType(IndexSchema.java:1288)
	at org.apache.solr.schema.IndexSchema$SolrQueryAnalyzer.getWrappedAnalyzer(IndexSchema.java:430)
	at org.apache.lucene.analysis.DelegatingAnalyzerWrapper$DelegatingReuseStrategy.getReusableComponents(DelegatingAnalyzerWrapper.java:84)
	at org.apache.lucene.analysis.Analyzer.tokenStream(Analyzer.java:191)
	at org.apache.lucene.util.QueryBuilder.createFieldQuery(QueryBuilder.java:240)
	at org.apache.solr.parser.SolrQueryParserBase.newFieldQuery(SolrQueryParserBase.java:445)
	at org.apache.solr.parser.QueryParser.newFieldQuery(QueryParser.java:61)
	at org.apache.solr.parser.SolrQueryParserBase.getFieldQuery(SolrQueryParserBase.java:1038)
	at org.apache.solr.parser.QueryParser.MultiTerm(QueryParser.java:592)
	at org.apache.solr.parser.QueryParser.Query(QueryParser.java:198)
	at org.apache.solr.parser.QueryParser.TopLevelQuery(QueryParser.java:130)
	at org.apache.solr.parser.SolrQueryParserBase.parse(SolrQueryParserBase.java:212)
	at org.apache.solr.search.LuceneQParser.parse(LuceneQParser.java:48)
	at org.apache.solr.search.QParser.getQuery(QParser.java:168)
	at org.apache.solr.handler.component.QueryComponent.prepare(QueryComponent.java:160)
	at org.apache.solr.handler.component.SearchHandler.handleRequestBody(SearchHandler.java:276)
	at org.apache.solr.handler.RequestHandlerBase.handleRequest(RequestHandlerBase.java:177)
	at org.apache.solr.core.SolrCore.execute(SolrCore.java:2474)
	at org.apache.solr.servlet.HttpSolrCall.execute(HttpSolrCall.java:720)
	at org.apache.solr.servlet.HttpSolrCall.call(HttpSolrCall.java:526)
	at org.apache.solr.servlet.SolrDispatchFilter.doFilter(SolrDispatchFilter.java:378)
	at org.apache.solr.servlet.SolrDispatchFilter.doFilter(SolrDispatchFilter.java:322)
	at org.eclipse.jetty.servlet.ServletHandler$CachedChain.doFilter(ServletHandler.java:1691)
	at org.eclipse.jetty.servlet.ServletHandler.doHandle(ServletHandler.java:582)
	at org.eclipse.jetty.server.handler.ScopedHandler.handle(ScopedHandler.java:143)
	at org.eclipse.jetty.security.SecurityHandler.handle(SecurityHandler.java:548)
	at org.eclipse.jetty.server.session.SessionHandler.doHandle(SessionHandler.java:226)
	at org.eclipse.jetty.server.handler.ContextHandler.doHandle(ContextHandler.java:1180)
	at org.eclipse.jetty.servlet.ServletHandler.doScope(ServletHandler.java:512)
	at org.eclipse.jetty.server.session.SessionHandler.doScope(SessionHandler.java:185)
	at org.eclipse.jetty.server.handler.ContextHandler.doScope(ContextHandler.java:1112)
	at org.eclipse.jetty.server.handler.ScopedHandler.handle(ScopedHandler.java:141)
	at org.eclipse.jetty.server.handler.ContextHandlerCollection.handle(ContextHandlerCollection.java:213)
	at org.eclipse.jetty.server.handler.HandlerCollection.handle(HandlerCollection.java:119)
	at org.eclipse.jetty.server.handler.HandlerWrapper.handle(HandlerWrapper.java:134)
	at org.eclipse.jetty.rewrite.handler.RewriteHandler.handle(RewriteHandler.java:335)
	at org.eclipse.jetty.server.handler.HandlerWrapper.handle(HandlerWrapper.java:134)
	at org.eclipse.jetty.server.Server.handle(Server.java:534)
	at org.eclipse.jetty.server.HttpChannel.handle(HttpChannel.java:320)
	at org.eclipse.jetty.server.HttpConnection.onFillable(HttpConnection.java:251)
	at org.eclipse.jetty.io.AbstractConnection$ReadCallback.succeeded(AbstractConnection.java:273)
	at org.eclipse.jetty.io.FillInterest.fillable(FillInterest.java:95)
	at org.eclipse.jetty.io.SelectChannelEndPoint$2.run(SelectChannelEndPoint.java:93)
	at org.eclipse.jetty.util.thread.strategy.ExecuteProduceConsume.executeProduceConsume(ExecuteProduceConsume.java:303)
	at org.eclipse.jetty.util.thread.strategy.ExecuteProduceConsume.produceConsume(ExecuteProduceConsume.java:148)
	at org.eclipse.jetty.util.thread.strategy.ExecuteProduceConsume.run(ExecuteProduceConsume.java:136)
	at org.eclipse.jetty.util.thread.QueuedThreadPool.runJob(QueuedThreadPool.java:671)
	at org.eclipse.jetty.util.thread.QueuedThreadPool$2.run(QueuedThreadPool.java:589)
	at java.lang.Thread.run(Thread.java:748)

2018-06-18 17:29:41.924 INFO  (qtp1205044462-38) [   x:libriSolr] o.a.s.c.S.Request [libriSolr]  webapp=/solr path=/select params={q=titolo:+120+days+of+sodom&debugQuery=on} status=400 QTime=1
2018-06-18 17:29:43.519 INFO  (qtp1205044462-20) [   ] o.a.s.s.HttpSolrCall [admin] webapp=null path=/admin/cores params={indexInfo=false&wt=json&_=1529342983374} status=0 QTime=0
2018-06-18 17:29:43.527 INFO  (qtp1205044462-17) [   ] o.a.s.s.HttpSolrCall [admin] webapp=null path=/admin/info/system params={wt=json&_=1529342983375} status=0 QTime=8
2018-06-18 17:29:53.670 INFO  (qtp1205044462-37) [   x:libriSolr] o.a.s.c.S.Request [libriSolr]  webapp=/solr path=/select params={q=titolo:"ciao+come+va"&_=1529342983467} hits=0 status=0 QTime=1
2018-06-18 17:29:59.513 INFO  (qtp1205044462-19) [   x:libriSolr] o.a.s.c.S.Request [libriSolr]  webapp=/solr path=/select params={q=titolo:"ciao+come+va+120"&_=1529342983467} hits=0 status=0 QTime=1
2018-06-18 17:30:12.595 INFO  (qtp1205044462-15) [   x:libriSolr] o.a.s.c.S.Request [libriSolr]  webapp=/solr path=/select params={q=titolo:ciao%2Bcome%2Bva&_=1529342983467} hits=0 status=0 QTime=0
2018-06-18 17:30:16.903 INFO  (qtp1205044462-14) [   x:libriSolr] o.a.s.c.S.Request [libriSolr]  webapp=/solr path=/select params={q=titolo:ciao%2Bcome%2Bva%2B120&_=1529342983467} hits=1 status=0 QTime=1
2018-06-18 17:30:33.307 INFO  (qtp1205044462-20) [   x:libriSolr] o.a.s.c.S.Request [libriSolr]  webapp=/solr path=/select params={q=titolo:ciao%2Bcome%2Bva%2B120%2Bcazzo&fl=*,score&_=1529342983467} hits=1 status=0 QTime=1
2018-06-18 17:30:40.306 INFO  (qtp1205044462-17) [   x:libriSolr] o.a.s.c.S.Request [libriSolr]  webapp=/solr path=/select params={q=titolo:ciao%2Bcome%2Bva%2B120&fl=*,score&_=1529342983467} hits=1 status=0 QTime=1
2018-06-18 17:30:57.335 INFO  (qtp1205044462-37) [   x:libriSolr] o.a.s.c.S.Request [libriSolr]  webapp=/solr path=/select params={q=titolo:ciao%2Bcome%2Bva%2B120%2Bsimon&fl=*,score&_=1529342983467} hits=3 status=0 QTime=1
2018-06-18 17:31:19.271 INFO  (qtp1205044462-19) [   x:libriSolr] o.a.s.c.S.Request [libriSolr]  webapp=/solr path=/select params={q=titolo:ciao%2Bcome%2Bva%2B120%2Bsimon%2Bdays&fl=*,score&_=1529342983467} hits=3 status=0 QTime=1
2018-06-18 17:31:25.454 INFO  (qtp1205044462-15) [   x:libriSolr] o.a.s.c.S.Request [libriSolr]  webapp=/solr path=/select params={q=titolo:ciao%2Bcome%2Bva%2B120%2Bsimon%2Bdays%2Bfreedom&fl=*,score&_=1529342983467} hits=3 status=0 QTime=1
2018-06-18 17:31:32.425 INFO  (qtp1205044462-14) [   x:libriSolr] o.a.s.c.S.Request [libriSolr]  webapp=/solr path=/select params={q=titolo:120%2Bsimon%2Bdays%2Bfreedom&fl=*,score&_=1529342983467} hits=3 status=0 QTime=2
2018-06-18 17:31:39.133 INFO  (qtp1205044462-20) [   x:libriSolr] o.a.s.c.S.Request [libriSolr]  webapp=/solr path=/select params={q=titolo:120%2Bdays%2Bfreedom&fl=*,score&_=1529342983467} hits=1 status=0 QTime=1
2018-06-18 17:31:46.755 INFO  (qtp1205044462-19) [   x:libriSolr] o.a.s.c.S.Request [libriSolr]  webapp=/solr path=/select params={q=titolo:120%2Bdays%2Bof%2Bfreedom&fl=*,score&_=1529342983467} hits=3 status=0 QTime=1
2018-06-18 17:32:10.757 INFO  (qtp1205044462-15) [   x:libriSolr] o.a.s.c.S.Request [libriSolr]  webapp=/solr path=/select params={q=titolo:days%2Bof%2Bfreedom&fl=*,score&_=1529342983467} hits=3 status=0 QTime=1
2018-06-18 17:32:19.477 INFO  (qtp1205044462-14) [   x:libriSolr] o.a.s.c.S.Request [libriSolr]  webapp=/solr path=/select params={q=titolo:days%2Bfreedom&fl=*,score&_=1529342983467} hits=1 status=0 QTime=1
2018-06-18 17:32:51.823 INFO  (qtp1205044462-37) [   x:libriSolr] o.a.s.c.S.Request [libriSolr]  webapp=/solr path=/select params={q=titolo:"days+freedom"&start=0&rows=0&wt=javabin&version=2} hits=0 status=0 QTime=0
2018-06-18 17:32:51.827 INFO  (qtp1205044462-20) [   x:libriSolr] o.a.s.c.S.Request [libriSolr]  webapp=/solr path=/select params={q=titolo:"days+freedom"&start=0&rows=0&wt=javabin&version=2} hits=0 status=0 QTime=0
2018-06-18 17:32:58.721 INFO  (qtp1205044462-19) [   x:libriSolr] o.a.s.c.S.Request [libriSolr]  webapp=/solr path=/select params={q=titolo:days\%2Bfreedom&start=0&rows=0&wt=javabin&version=2} hits=1 status=0 QTime=0
2018-06-18 17:32:58.724 INFO  (qtp1205044462-15) [   x:libriSolr] o.a.s.c.S.Request [libriSolr]  webapp=/solr path=/select params={q=titolo:days\%2Bfreedom&start=0&rows=1&wt=javabin&version=2} hits=1 status=0 QTime=0
2018-06-18 17:34:38.041 INFO  (qtp1205044462-20) [   x:libriSolr] o.a.s.c.S.Request [libriSolr]  webapp=/solr path=/select params={q=titolo:days%2Bfreedom&fl=*,score&_=1529342983467} hits=1 status=0 QTime=0
2018-06-18 17:34:38.792 INFO  (qtp1205044462-19) [   x:libriSolr] o.a.s.c.S.Request [libriSolr]  webapp=/solr path=/select params={q=titolo:days%2Bfreedom&fl=*,score&_=1529342983467} hits=1 status=0 QTime=0
2018-06-18 17:34:39.035 INFO  (qtp1205044462-15) [   x:libriSolr] o.a.s.c.S.Request [libriSolr]  webapp=/solr path=/select params={q=titolo:days%2Bfreedom&fl=*,score&_=1529342983467} hits=1 status=0 QTime=0
2018-06-18 17:34:45.582 INFO  (qtp1205044462-38) [   x:libriSolr] o.a.s.c.S.Request [libriSolr]  webapp=/solr path=/select params={q=titolo:days%2Bfreedom%2Bsuca&fl=*,score&_=1529342983467} hits=1 status=0 QTime=1
2018-06-18 17:34:47.381 INFO  (qtp1205044462-37) [   x:libriSolr] o.a.s.c.S.Request [libriSolr]  webapp=/solr path=/select params={q=titolo:days%2Bfreedom%2Bsuca&fl=*,score&_=1529342983467} hits=1 status=0 QTime=0
2018-06-18 17:34:55.929 INFO  (qtp1205044462-22) [   x:libriSolr] o.a.s.c.S.Request [libriSolr]  webapp=/solr path=/select params={q=titolo:days%2Bfreedom&fl=*,score&_=1529342983467} hits=1 status=0 QTime=0
2018-06-18 17:36:23.027 INFO  (qtp1205044462-20) [   x:libriSolr] o.a.s.c.S.Request [libriSolr]  webapp=/solr path=/select params={q=titolo:days%26%26freedom&fl=*,score&_=1529342983467} hits=1 status=0 QTime=0
2018-06-18 17:36:38.864 INFO  (qtp1205044462-19) [   x:libriSolr] o.a.s.c.S.Request [libriSolr]  webapp=/solr path=/select params={q=titolo:"days%26%26freedom"&fl=*,score&_=1529342983467} hits=0 status=0 QTime=1
2018-06-18 17:36:44.760 INFO  (qtp1205044462-15) [   x:libriSolr] o.a.s.c.S.Request [libriSolr]  webapp=/solr path=/select params={q=titolo:"days%26%26120"&fl=*,score&_=1529342983467} hits=0 status=0 QTime=0
2018-06-18 17:36:47.256 INFO  (qtp1205044462-37) [   ] o.a.s.s.HttpSolrCall [admin] webapp=null path=/admin/cores params={indexInfo=false&wt=json&_=1529342983374} status=0 QTime=0
2018-06-18 17:36:47.259 INFO  (qtp1205044462-19) [   x:libriSolr] o.a.s.c.S.Request [libriSolr]  webapp=/solr path=/admin/ping params={action=status&wt=json&_=1529342983375&ts=1529342983375} status=503 QTime=1
2018-06-18 17:36:47.259 INFO  (qtp1205044462-22) [   x:libriSolr] o.a.s.c.S.Request [libriSolr]  webapp=/solr path=/replication params={wt=json&command=details&_=1529343407211} status=0 QTime=3
2018-06-18 17:36:47.260 INFO  (qtp1205044462-38) [   x:libriSolr] o.a.s.c.S.Request [libriSolr]  webapp=/solr path=/admin/luke params={numTerms=0&show=index&wt=json&_=1529343407210} status=0 QTime=5
2018-06-18 17:36:47.266 INFO  (qtp1205044462-39) [   x:libriSolr] o.a.s.c.S.Request [libriSolr]  webapp=/solr path=/admin/system params={wt=json&_=1529343407210} status=0 QTime=10
2018-06-18 17:36:47.267 INFO  (qtp1205044462-46) [   ] o.a.s.s.HttpSolrCall [admin] webapp=null path=/admin/info/system params={wt=json&_=1529342983375} status=0 QTime=6
2018-06-18 17:36:50.687 INFO  (qtp1205044462-22) [   ] o.a.s.s.HttpSolrCall [admin] webapp=null path=/admin/cores params={indexInfo=false&wt=json&_=1529342983374} status=0 QTime=0
2018-06-18 17:36:50.692 INFO  (qtp1205044462-48) [   ] o.a.s.s.HttpSolrCall [admin] webapp=null path=/admin/info/system params={wt=json&_=1529342983375} status=0 QTime=5
2018-06-18 17:36:50.821 INFO  (qtp1205044462-19) [   x:libriSolr] o.a.s.c.S.Request [libriSolr]  webapp=/solr path=/admin/mbeans params={stats=true&wt=json&_=1529343410679} status=0 QTime=125
2018-06-18 17:36:51.132 INFO  (qtp1205044462-15) [   ] o.a.s.s.HttpSolrCall [admin] webapp=null path=/admin/cores params={indexInfo=false&wt=json&_=1529342983374} status=0 QTime=0
2018-06-18 17:36:51.139 INFO  (qtp1205044462-22) [   ] o.a.s.s.HttpSolrCall [admin] webapp=null path=/admin/info/system params={wt=json&_=1529342983375} status=0 QTime=5
2018-06-18 17:41:55.279 INFO  (qtp1205044462-39) [   x:libriSolr] o.a.s.c.S.Request [libriSolr]  webapp=/solr path=/select params={q=*:*&_=1529342983467} hits=3 status=0 QTime=0
2018-06-18 17:42:11.311 ERROR (qtp1205044462-20) [   x:libriSolr] o.a.s.h.RequestHandlerBase org.apache.solr.common.SolrException: undefined field _text_
	at org.apache.solr.schema.IndexSchema.getDynamicFieldType(IndexSchema.java:1288)
	at org.apache.solr.schema.IndexSchema$SolrQueryAnalyzer.getWrappedAnalyzer(IndexSchema.java:430)
	at org.apache.lucene.analysis.DelegatingAnalyzerWrapper$DelegatingReuseStrategy.getReusableComponents(DelegatingAnalyzerWrapper.java:84)
	at org.apache.lucene.analysis.Analyzer.tokenStream(Analyzer.java:191)
	at org.apache.lucene.util.QueryBuilder.createFieldQuery(QueryBuilder.java:240)
	at org.apache.solr.parser.SolrQueryParserBase.newFieldQuery(SolrQueryParserBase.java:445)
	at org.apache.solr.parser.QueryParser.newFieldQuery(QueryParser.java:61)
	at org.apache.solr.parser.SolrQueryParserBase.getFieldQuery(SolrQueryParserBase.java:1038)
	at org.apache.solr.parser.QueryParser.MultiTerm(QueryParser.java:592)
	at org.apache.solr.parser.QueryParser.Query(QueryParser.java:198)
	at org.apache.solr.parser.QueryParser.TopLevelQuery(QueryParser.java:130)
	at org.apache.solr.parser.SolrQueryParserBase.parse(SolrQueryParserBase.java:212)
	at org.apache.solr.search.LuceneQParser.parse(LuceneQParser.java:48)
	at org.apache.solr.search.QParser.getQuery(QParser.java:168)
	at org.apache.solr.handler.component.QueryComponent.prepare(QueryComponent.java:160)
	at org.apache.solr.handler.component.SearchHandler.handleRequestBody(SearchHandler.java:269)
	at org.apache.solr.handler.RequestHandlerBase.handleRequest(RequestHandlerBase.java:177)
	at org.apache.solr.core.SolrCore.execute(SolrCore.java:2474)
	at org.apache.solr.servlet.HttpSolrCall.execute(HttpSolrCall.java:720)
	at org.apache.solr.servlet.HttpSolrCall.call(HttpSolrCall.java:526)
	at org.apache.solr.servlet.SolrDispatchFilter.doFilter(SolrDispatchFilter.java:378)
	at org.apache.solr.servlet.SolrDispatchFilter.doFilter(SolrDispatchFilter.java:322)
	at org.eclipse.jetty.servlet.ServletHandler$CachedChain.doFilter(ServletHandler.java:1691)
	at org.eclipse.jetty.servlet.ServletHandler.doHandle(ServletHandler.java:582)
	at org.eclipse.jetty.server.handler.ScopedHandler.handle(ScopedHandler.java:143)
	at org.eclipse.jetty.security.SecurityHandler.handle(SecurityHandler.java:548)
	at org.eclipse.jetty.server.session.SessionHandler.doHandle(SessionHandler.java:226)
	at org.eclipse.jetty.server.handler.ContextHandler.doHandle(ContextHandler.java:1180)
	at org.eclipse.jetty.servlet.ServletHandler.doScope(ServletHandler.java:512)
	at org.eclipse.jetty.server.session.SessionHandler.doScope(SessionHandler.java:185)
	at org.eclipse.jetty.server.handler.ContextHandler.doScope(ContextHandler.java:1112)
	at org.eclipse.jetty.server.handler.ScopedHandler.handle(ScopedHandler.java:141)
	at org.eclipse.jetty.server.handler.ContextHandlerCollection.handle(ContextHandlerCollection.java:213)
	at org.eclipse.jetty.server.handler.HandlerCollection.handle(HandlerCollection.java:119)
	at org.eclipse.jetty.server.handler.HandlerWrapper.handle(HandlerWrapper.java:134)
	at org.eclipse.jetty.rewrite.handler.RewriteHandler.handle(RewriteHandler.java:335)
	at org.eclipse.jetty.server.handler.HandlerWrapper.handle(HandlerWrapper.java:134)
	at org.eclipse.jetty.server.Server.handle(Server.java:534)
	at org.eclipse.jetty.server.HttpChannel.handle(HttpChannel.java:320)
	at org.eclipse.jetty.server.HttpConnection.onFillable(HttpConnection.java:251)
	at org.eclipse.jetty.io.AbstractConnection$ReadCallback.succeeded(AbstractConnection.java:273)
	at org.eclipse.jetty.io.FillInterest.fillable(FillInterest.java:95)
	at org.eclipse.jetty.io.SelectChannelEndPoint$2.run(SelectChannelEndPoint.java:93)
	at org.eclipse.jetty.util.thread.strategy.ExecuteProduceConsume.executeProduceConsume(ExecuteProduceConsume.java:303)
	at org.eclipse.jetty.util.thread.strategy.ExecuteProduceConsume.produceConsume(ExecuteProduceConsume.java:148)
	at org.eclipse.jetty.util.thread.strategy.ExecuteProduceConsume.run(ExecuteProduceConsume.java:136)
	at org.eclipse.jetty.util.thread.QueuedThreadPool.runJob(QueuedThreadPool.java:671)
	at org.eclipse.jetty.util.thread.QueuedThreadPool$2.run(QueuedThreadPool.java:589)
	at java.lang.Thread.run(Thread.java:748)

2018-06-18 17:42:11.311 INFO  (qtp1205044462-20) [   x:libriSolr] o.a.s.c.S.Request [libriSolr]  webapp=/solr path=/select params={q=titolo:the+120+days&_=1529342983467} status=400 QTime=0
2018-06-18 17:42:19.511 INFO  (qtp1205044462-38) [   x:libriSolr] o.a.s.c.S.Request [libriSolr]  webapp=/solr path=/select params={q=titolo:"the+120+days"&_=1529342983467} hits=1 status=0 QTime=1
2018-06-18 17:42:23.154 INFO  (qtp1205044462-46) [   x:libriSolr] o.a.s.c.S.Request [libriSolr]  webapp=/solr path=/select params={q=titolo:"the+120+days"} hits=1 status=0 QTime=0
2018-06-18 18:31:38.534 INFO  (qtp1205044462-39) [   x:libriSolr] o.a.s.c.S.Request [libriSolr]  webapp=/solr path=/select params={q=titolo:simon&start=0&rows=0&wt=javabin&version=2} hits=3 status=0 QTime=1
2018-06-18 18:31:38.539 INFO  (qtp1205044462-20) [   x:libriSolr] o.a.s.c.S.Request [libriSolr]  webapp=/solr path=/select params={q=titolo:simon&start=0&rows=3&wt=javabin&version=2} hits=3 status=0 QTime=0
2018-06-18 18:34:28.533 INFO  (qtp1205044462-14) [   x:libriSolr] o.a.s.c.S.Request [libriSolr]  webapp=/solr path=/select params={q=titolo:simon&start=0&rows=0&wt=javabin&version=2} hits=3 status=0 QTime=0
2018-06-18 18:34:28.559 INFO  (qtp1205044462-39) [   x:libriSolr] o.a.s.c.S.Request [libriSolr]  webapp=/solr path=/select params={q=titolo:simon&start=0&rows=3&wt=javabin&version=2} hits=3 status=0 QTime=0
2018-06-18 18:34:32.851 INFO  (qtp1205044462-20) [   x:libriSolr] o.a.s.c.S.Request [libriSolr]  webapp=/solr path=/select params={q=titolo:simon&start=0&rows=0&wt=javabin&version=2} hits=3 status=0 QTime=0
2018-06-18 18:34:32.854 INFO  (qtp1205044462-46) [   x:libriSolr] o.a.s.c.S.Request [libriSolr]  webapp=/solr path=/select params={q=titolo:simon&start=0&rows=3&wt=javabin&version=2} hits=3 status=0 QTime=0
2018-06-18 18:34:34.074 INFO  (qtp1205044462-48) [   x:libriSolr] o.a.s.c.S.Request [libriSolr]  webapp=/solr path=/select params={q=titolo:simon&start=0&rows=0&wt=javabin&version=2} hits=3 status=0 QTime=0
2018-06-18 18:34:34.077 INFO  (qtp1205044462-17) [   x:libriSolr] o.a.s.c.S.Request [libriSolr]  webapp=/solr path=/select params={q=titolo:simon&start=0&rows=3&wt=javabin&version=2} hits=3 status=0 QTime=0
2018-06-18 18:34:36.088 INFO  (qtp1205044462-14) [   x:libriSolr] o.a.s.c.S.Request [libriSolr]  webapp=/solr path=/select params={q=titolo:simon&start=0&rows=0&wt=javabin&version=2} hits=3 status=0 QTime=0
2018-06-18 18:34:36.091 INFO  (qtp1205044462-39) [   x:libriSolr] o.a.s.c.S.Request [libriSolr]  webapp=/solr path=/select params={q=titolo:simon&start=0&rows=3&wt=javabin&version=2} hits=3 status=0 QTime=0
2018-06-18 18:35:08.920 INFO  (qtp1205044462-20) [   x:libriSolr] o.a.s.c.S.Request [libriSolr]  webapp=/solr path=/select params={q=titolo:simon&start=0&rows=0&wt=javabin&version=2} hits=3 status=0 QTime=0
2018-06-18 18:35:08.924 INFO  (qtp1205044462-46) [   x:libriSolr] o.a.s.c.S.Request [libriSolr]  webapp=/solr path=/select params={q=titolo:simon&start=0&rows=3&wt=javabin&version=2} hits=3 status=0 QTime=0
2018-06-18 18:35:25.158 INFO  (qtp1205044462-48) [   x:libriSolr] o.a.s.c.S.Request [libriSolr]  webapp=/solr path=/select params={q=titolo:simon&start=0&rows=0&wt=javabin&version=2} hits=3 status=0 QTime=0
2018-06-18 18:35:25.163 INFO  (qtp1205044462-17) [   x:libriSolr] o.a.s.c.S.Request [libriSolr]  webapp=/solr path=/select params={q=titolo:simon&start=0&rows=3&wt=javabin&version=2} hits=3 status=0 QTime=0
2018-06-18 18:35:28.900 INFO  (qtp1205044462-14) [   x:libriSolr] o.a.s.c.S.Request [libriSolr]  webapp=/solr path=/select params={q=titolo:simon&start=0&rows=0&wt=javabin&version=2} hits=3 status=0 QTime=0
2018-06-18 18:35:28.903 INFO  (qtp1205044462-39) [   x:libriSolr] o.a.s.c.S.Request [libriSolr]  webapp=/solr path=/select params={q=titolo:simon&start=0&rows=3&wt=javabin&version=2} hits=3 status=0 QTime=0
2018-06-18 18:35:31.156 INFO  (qtp1205044462-20) [   x:libriSolr] o.a.s.c.S.Request [libriSolr]  webapp=/solr path=/select params={q=titolo:simon&start=0&rows=0&wt=javabin&version=2} hits=3 status=0 QTime=0
2018-06-18 18:35:31.160 INFO  (qtp1205044462-46) [   x:libriSolr] o.a.s.c.S.Request [libriSolr]  webapp=/solr path=/select params={q=titolo:simon&start=0&rows=3&wt=javabin&version=2} hits=3 status=0 QTime=0
2018-06-18 18:35:37.525 INFO  (qtp1205044462-48) [   x:libriSolr] o.a.s.c.S.Request [libriSolr]  webapp=/solr path=/select params={q=titolo:120&start=0&rows=0&wt=javabin&version=2} hits=1 status=0 QTime=0
2018-06-18 18:35:37.529 INFO  (qtp1205044462-17) [   x:libriSolr] o.a.s.c.S.Request [libriSolr]  webapp=/solr path=/select params={q=titolo:120&start=0&rows=1&wt=javabin&version=2} hits=1 status=0 QTime=0
2018-06-18 18:39:43.701 INFO  (qtp1205044462-14) [   x:libriSolr] o.a.s.c.S.Request [libriSolr]  webapp=/solr path=/select params={q=titolo:simon&start=0&rows=0&wt=javabin&version=2} hits=3 status=0 QTime=0
2018-06-18 18:39:43.728 INFO  (qtp1205044462-20) [   x:libriSolr] o.a.s.c.S.Request [libriSolr]  webapp=/solr path=/select params={q=titolo:simon&start=0&rows=3&wt=javabin&version=2} hits=3 status=0 QTime=0
2018-06-18 18:40:44.728 INFO  (qtp1205044462-46) [   x:libriSolr] o.a.s.c.S.Request [libriSolr]  webapp=/solr path=/select params={q=titolo:simon&start=0&rows=0&wt=javabin&version=2} hits=3 status=0 QTime=0
2018-06-18 18:40:44.731 INFO  (qtp1205044462-48) [   x:libriSolr] o.a.s.c.S.Request [libriSolr]  webapp=/solr path=/select params={q=titolo:simon&start=0&rows=3&wt=javabin&version=2} hits=3 status=0 QTime=0
2018-06-18 18:42:57.374 INFO  (qtp1205044462-22) [   x:libriSolr] o.a.s.c.S.Request [libriSolr]  webapp=/solr path=/select params={q=titolo:simon&start=0&rows=0&wt=javabin&version=2} hits=3 status=0 QTime=0
2018-06-18 18:42:57.400 INFO  (qtp1205044462-14) [   x:libriSolr] o.a.s.c.S.Request [libriSolr]  webapp=/solr path=/select params={q=titolo:simon&start=0&rows=3&wt=javabin&version=2} hits=3 status=0 QTime=0
2018-06-18 18:50:12.540 INFO  (qtp1205044462-38) [   x:libriSolr] o.a.s.c.S.Request [libriSolr]  webapp=/solr path=/select params={q=titolo:simon&start=0&rows=0&wt=javabin&version=2} hits=3 status=0 QTime=0
2018-06-18 18:50:12.568 INFO  (qtp1205044462-22) [   x:libriSolr] o.a.s.c.S.Request [libriSolr]  webapp=/solr path=/select params={q=titolo:simon&start=0&rows=3&wt=javabin&version=2} hits=3 status=0 QTime=0
2018-06-18 18:50:19.322 INFO  (qtp1205044462-14) [   x:libriSolr] o.a.s.c.S.Request [libriSolr]  webapp=/solr path=/select params={q=titolo:simon&start=0&rows=0&wt=javabin&version=2} hits=3 status=0 QTime=0
2018-06-18 18:50:19.326 INFO  (qtp1205044462-20) [   x:libriSolr] o.a.s.c.S.Request [libriSolr]  webapp=/solr path=/select params={q=titolo:simon&start=0&rows=3&wt=javabin&version=2} hits=3 status=0 QTime=0
2018-06-18 18:50:20.923 INFO  (qtp1205044462-48) [   x:libriSolr] o.a.s.c.S.Request [libriSolr]  webapp=/solr path=/select params={q=titolo:simon&start=0&rows=0&wt=javabin&version=2} hits=3 status=0 QTime=0
2018-06-18 18:50:20.927 INFO  (qtp1205044462-19) [   x:libriSolr] o.a.s.c.S.Request [libriSolr]  webapp=/solr path=/select params={q=titolo:simon&start=0&rows=3&wt=javabin&version=2} hits=3 status=0 QTime=0
2018-06-18 18:55:13.868 INFO  (qtp1205044462-14) [   x:libriSolr] o.a.s.c.S.Request [libriSolr]  webapp=/solr path=/select params={q=titolo:simon&start=0&rows=0&wt=javabin&version=2} hits=3 status=0 QTime=0
2018-06-18 18:55:13.872 INFO  (qtp1205044462-20) [   x:libriSolr] o.a.s.c.S.Request [libriSolr]  webapp=/solr path=/select params={q=titolo:simon&start=0&rows=3&wt=javabin&version=2} hits=3 status=0 QTime=0
2018-06-18 18:55:38.336 INFO  (qtp1205044462-48) [   x:libriSolr] o.a.s.c.S.Request [libriSolr]  webapp=/solr path=/select params={q=titolo:simon&start=0&rows=0&wt=javabin&version=2} hits=3 status=0 QTime=0
2018-06-18 18:55:38.339 INFO  (qtp1205044462-19) [   x:libriSolr] o.a.s.c.S.Request [libriSolr]  webapp=/solr path=/select params={q=titolo:simon&start=0&rows=3&wt=javabin&version=2} hits=3 status=0 QTime=0
2018-06-18 18:56:14.814 INFO  (qtp1205044462-22) [   x:libriSolr] o.a.s.c.S.Request [libriSolr]  webapp=/solr path=/select params={q=titolo:simon&start=0&rows=0&wt=javabin&version=2} hits=3 status=0 QTime=0
2018-06-18 18:56:14.817 INFO  (qtp1205044462-39) [   x:libriSolr] o.a.s.c.S.Request [libriSolr]  webapp=/solr path=/select params={q=titolo:simon&start=0&rows=3&wt=javabin&version=2} hits=3 status=0 QTime=0
2018-06-18 22:13:32.080 INFO  (ShutdownMonitor) [   ] o.a.s.c.CoreContainer Shutting down CoreContainer instance=384587033
2018-06-18 22:13:32.080 INFO  (ShutdownMonitor) [   ] o.a.s.m.SolrMetricManager Closing metric reporters for registry=solr.node, tag=null
2018-06-18 22:13:32.080 INFO  (ShutdownMonitor) [   ] o.a.s.m.SolrMetricManager Closing metric reporters for registry=solr.jvm, tag=null
2018-06-18 22:13:32.080 INFO  (ShutdownMonitor) [   ] o.a.s.m.SolrMetricManager Closing metric reporters for registry=solr.jetty, tag=null
2018-06-18 22:13:32.099 INFO  (coreCloseExecutor-17-thread-1) [   x:coreProva] o.a.s.c.SolrCore [coreProva]  CLOSING SolrCore org.apache.solr.core.SolrCore@528e7f2f
2018-06-18 22:13:32.099 INFO  (coreCloseExecutor-17-thread-2) [   x:libriSolr] o.a.s.c.SolrCore [libriSolr]  CLOSING SolrCore org.apache.solr.core.SolrCore@313fdee7
2018-06-18 22:13:32.099 INFO  (coreCloseExecutor-17-thread-1) [   x:coreProva] o.a.s.m.SolrMetricManager Closing metric reporters for registry=solr.core.coreProva, tag=1385070383
2018-06-18 22:13:32.099 INFO  (coreCloseExecutor-17-thread-2) [   x:libriSolr] o.a.s.m.SolrMetricManager Closing metric reporters for registry=solr.core.libriSolr, tag=826269415
