2018-06-19 04:58:49.524 INFO  (main) [   ] o.e.j.s.Server jetty-9.3.14.v20161028
2018-06-19 04:58:49.926 INFO  (main) [   ] o.a.s.s.SolrDispatchFilter  ___      _       Welcome to Apache Solr™ version 7.0.0
2018-06-19 04:58:49.926 INFO  (main) [   ] o.a.s.s.SolrDispatchFilter / __| ___| |_ _   Starting in standalone mode on port 8983
2018-06-19 04:58:49.926 INFO  (main) [   ] o.a.s.s.SolrDispatchFilter \__ \/ _ \ | '_|  Install dir: /home/renzo/rAlvaPrincipe/BookEx/Sviluppo/solr-7.0.0, Default config dir: /home/renzo/rAlvaPrincipe/BookEx/Sviluppo/solr-7.0.0/server/solr/configsets/_default/conf
2018-06-19 04:58:49.937 INFO  (main) [   ] o.a.s.s.SolrDispatchFilter |___/\___/_|_|    Start time: 2018-06-19T04:58:49.927Z
2018-06-19 04:58:49.937 INFO  (main) [   ] o.a.s.s.StartupLoggingUtils Property solr.log.muteconsole given. Muting ConsoleAppender named CONSOLE
2018-06-19 04:58:50.019 INFO  (main) [   ] o.a.s.c.SolrResourceLoader Using system property solr.solr.home: /home/renzo/rAlvaPrincipe/BookEx/Sviluppo/solr-7.0.0/server/solr
2018-06-19 04:58:50.043 INFO  (main) [   ] o.a.s.c.SolrXmlConfig Loading container configuration from /home/renzo/rAlvaPrincipe/BookEx/Sviluppo/solr-7.0.0/server/solr/solr.xml
2018-06-19 04:58:51.159 INFO  (main) [   ] o.a.s.c.CorePropertiesLocator Found 2 core definitions underneath /home/renzo/rAlvaPrincipe/BookEx/Sviluppo/solr-7.0.0/server/solr
2018-06-19 04:58:51.163 INFO  (main) [   ] o.a.s.c.CorePropertiesLocator Cores are: [coreProva, libriSolr]
2018-06-19 04:58:51.270 INFO  (main) [   ] o.e.j.s.Server Started @2219ms
2018-06-19 04:58:51.394 INFO  (coreLoadExecutor-6-thread-1) [   x:coreProva] o.a.s.c.SolrResourceLoader [coreProva] Added 51 libs to classloader, from paths: [/home/renzo/rAlvaPrincipe/BookEx/Sviluppo/solr-7.0.0/contrib/clustering/lib, /home/renzo/rAlvaPrincipe/BookEx/Sviluppo/solr-7.0.0/contrib/extraction/lib, /home/renzo/rAlvaPrincipe/BookEx/Sviluppo/solr-7.0.0/contrib/langid/lib, /home/renzo/rAlvaPrincipe/BookEx/Sviluppo/solr-7.0.0/contrib/velocity/lib, /home/renzo/rAlvaPrincipe/BookEx/Sviluppo/solr-7.0.0/dist]
2018-06-19 04:58:51.394 INFO  (coreLoadExecutor-6-thread-2) [   x:libriSolr] o.a.s.c.SolrResourceLoader [libriSolr] Added 51 libs to classloader, from paths: [/home/renzo/rAlvaPrincipe/BookEx/Sviluppo/solr-7.0.0/contrib/clustering/lib, /home/renzo/rAlvaPrincipe/BookEx/Sviluppo/solr-7.0.0/contrib/extraction/lib, /home/renzo/rAlvaPrincipe/BookEx/Sviluppo/solr-7.0.0/contrib/langid/lib, /home/renzo/rAlvaPrincipe/BookEx/Sviluppo/solr-7.0.0/contrib/velocity/lib, /home/renzo/rAlvaPrincipe/BookEx/Sviluppo/solr-7.0.0/dist]
2018-06-19 04:58:52.401 INFO  (coreLoadExecutor-6-thread-2) [   x:libriSolr] o.a.s.c.SolrConfig Using Lucene MatchVersion: 7.0.0
2018-06-19 04:58:52.407 INFO  (coreLoadExecutor-6-thread-1) [   x:coreProva] o.a.s.c.SolrConfig Using Lucene MatchVersion: 7.0.0
2018-06-19 04:58:52.539 INFO  (coreLoadExecutor-6-thread-2) [   x:libriSolr] o.a.s.s.IndexSchema [libriSolr] Schema name=schemaSolr
2018-06-19 04:58:52.556 INFO  (coreLoadExecutor-6-thread-1) [   x:coreProva] o.a.s.s.IndexSchema [coreProva] Schema name=schemaSolr
2018-06-19 04:58:52.661 WARN  (coreLoadExecutor-6-thread-2) [   x:libriSolr] o.a.s.c.SolrResourceLoader Solr loaded a deprecated plugin/analysis class [solr.TrieIntField]. Please consult documentation how to replace it accordingly.
2018-06-19 04:58:52.661 WARN  (coreLoadExecutor-6-thread-1) [   x:coreProva] o.a.s.c.SolrResourceLoader Solr loaded a deprecated plugin/analysis class [solr.TrieIntField]. Please consult documentation how to replace it accordingly.
2018-06-19 04:58:52.664 WARN  (coreLoadExecutor-6-thread-2) [   x:libriSolr] o.a.s.c.SolrResourceLoader Solr loaded a deprecated plugin/analysis class [solr.TrieLongField]. Please consult documentation how to replace it accordingly.
2018-06-19 04:58:52.664 WARN  (coreLoadExecutor-6-thread-1) [   x:coreProva] o.a.s.c.SolrResourceLoader Solr loaded a deprecated plugin/analysis class [solr.TrieLongField]. Please consult documentation how to replace it accordingly.
2018-06-19 04:58:52.694 WARN  (coreLoadExecutor-6-thread-2) [   x:libriSolr] o.a.s.c.SolrResourceLoader Solr loaded a deprecated plugin/analysis class [solr.WordDelimiterFilterFactory]. Please consult documentation how to replace it accordingly.
2018-06-19 04:58:52.732 INFO  (coreLoadExecutor-6-thread-1) [   x:coreProva] o.a.s.s.IndexSchema Loaded schema schemaSolr/1.5 with uniqueid field idDocument
2018-06-19 04:58:52.732 INFO  (coreLoadExecutor-6-thread-2) [   x:libriSolr] o.a.s.s.IndexSchema Loaded schema schemaSolr/1.5 with uniqueid field isbn
2018-06-19 04:58:52.732 INFO  (coreLoadExecutor-6-thread-1) [   x:coreProva] o.a.s.c.CoreContainer Creating SolrCore 'coreProva' using configuration from instancedir /home/renzo/rAlvaPrincipe/BookEx/Sviluppo/solr-7.0.0/server/solr/coreProva, trusted=true
2018-06-19 04:58:52.732 INFO  (coreLoadExecutor-6-thread-2) [   x:libriSolr] o.a.s.c.CoreContainer Creating SolrCore 'libriSolr' using configuration from instancedir /home/renzo/rAlvaPrincipe/BookEx/Sviluppo/solr-7.0.0/server/solr/libriSolr, trusted=true
2018-06-19 04:58:52.821 INFO  (coreLoadExecutor-6-thread-1) [   x:coreProva] o.a.s.c.SolrCore solr.RecoveryStrategy.Builder
2018-06-19 04:58:52.821 INFO  (coreLoadExecutor-6-thread-2) [   x:libriSolr] o.a.s.c.SolrCore solr.RecoveryStrategy.Builder
2018-06-19 04:58:52.851 INFO  (coreLoadExecutor-6-thread-2) [   x:libriSolr] o.a.s.c.SolrCore [[libriSolr] ] Opening new SolrCore at [/home/renzo/rAlvaPrincipe/BookEx/Sviluppo/solr-7.0.0/server/solr/libriSolr], dataDir=[/home/renzo/rAlvaPrincipe/BookEx/Sviluppo/solr-7.0.0/server/solr/libriSolr/data/]
2018-06-19 04:58:52.851 INFO  (coreLoadExecutor-6-thread-1) [   x:coreProva] o.a.s.c.SolrCore [[coreProva] ] Opening new SolrCore at [/home/renzo/rAlvaPrincipe/BookEx/Sviluppo/solr-7.0.0/server/solr/coreProva], dataDir=[/home/renzo/rAlvaPrincipe/BookEx/Sviluppo/solr-7.0.0/server/solr/coreProva/data/]
2018-06-19 04:58:52.896 INFO  (coreLoadExecutor-6-thread-2) [   x:libriSolr] o.a.s.r.XSLTResponseWriter xsltCacheLifetimeSeconds=5
2018-06-19 04:58:52.896 INFO  (coreLoadExecutor-6-thread-1) [   x:coreProva] o.a.s.r.XSLTResponseWriter xsltCacheLifetimeSeconds=5
2018-06-19 04:58:53.348 INFO  (coreLoadExecutor-6-thread-2) [   x:libriSolr] o.a.s.u.UpdateHandler Using UpdateLog implementation: org.apache.solr.update.UpdateLog
2018-06-19 04:58:53.348 INFO  (coreLoadExecutor-6-thread-1) [   x:coreProva] o.a.s.u.UpdateHandler Using UpdateLog implementation: org.apache.solr.update.UpdateLog
2018-06-19 04:58:53.348 INFO  (coreLoadExecutor-6-thread-1) [   x:coreProva] o.a.s.u.UpdateLog Initializing UpdateLog: dataDir= defaultSyncLevel=FLUSH numRecordsToKeep=100 maxNumLogsToKeep=10 numVersionBuckets=65536
2018-06-19 04:58:53.348 INFO  (coreLoadExecutor-6-thread-2) [   x:libriSolr] o.a.s.u.UpdateLog Initializing UpdateLog: dataDir= defaultSyncLevel=FLUSH numRecordsToKeep=100 maxNumLogsToKeep=10 numVersionBuckets=65536
2018-06-19 04:58:53.357 INFO  (coreLoadExecutor-6-thread-1) [   x:coreProva] o.a.s.u.CommitTracker Hard AutoCommit: if uncommited for 15000ms; 
2018-06-19 04:58:53.357 INFO  (coreLoadExecutor-6-thread-1) [   x:coreProva] o.a.s.u.CommitTracker Soft AutoCommit: disabled
2018-06-19 04:58:53.468 INFO  (coreLoadExecutor-6-thread-2) [   x:libriSolr] o.a.s.u.CommitTracker Hard AutoCommit: if uncommited for 15000ms; 
2018-06-19 04:58:53.469 INFO  (coreLoadExecutor-6-thread-2) [   x:libriSolr] o.a.s.u.CommitTracker Soft AutoCommit: disabled
2018-06-19 04:58:53.611 INFO  (coreLoadExecutor-6-thread-1) [   x:coreProva] o.a.s.s.SolrIndexSearcher Opening [Searcher@4b73cec9[coreProva] main]
2018-06-19 04:58:53.654 INFO  (coreLoadExecutor-6-thread-1) [   x:coreProva] o.a.s.r.ManagedResourceStorage File-based storage initialized to use dir: /home/renzo/rAlvaPrincipe/BookEx/Sviluppo/solr-7.0.0/server/solr/coreProva/conf
2018-06-19 04:58:53.696 INFO  (coreLoadExecutor-6-thread-1) [   x:coreProva] o.a.s.h.c.SpellCheckComponent Initializing spell checkers
2018-06-19 04:58:53.721 INFO  (coreLoadExecutor-6-thread-1) [   x:coreProva] o.a.s.s.DirectSolrSpellChecker init: {name=default,field=_text_,classname=solr.DirectSolrSpellChecker,distanceMeasure=internal,accuracy=0.5,maxEdits=2,minPrefix=1,maxInspections=5,minQueryLength=4,maxQueryFrequency=0.01}
2018-06-19 04:58:53.738 INFO  (coreLoadExecutor-6-thread-1) [   x:coreProva] o.a.s.h.ReplicationHandler Commits will be reserved for  10000
2018-06-19 04:58:53.835 INFO  (searcherExecutor-7-thread-1-processing-x:coreProva) [   x:coreProva] o.a.s.c.QuerySenderListener QuerySenderListener sending requests to Searcher@4b73cec9[coreProva] main{ExitableDirectoryReader(UninvertingDirectoryReader())}
2018-06-19 04:58:53.835 INFO  (searcherExecutor-7-thread-1-processing-x:coreProva) [   x:coreProva] o.a.s.c.QuerySenderListener QuerySenderListener done.
2018-06-19 04:58:53.835 INFO  (coreLoadExecutor-6-thread-1) [   x:coreProva] o.a.s.u.UpdateLog Could not find max version in index or recent updates, using new clock 1603675707235368960
2018-06-19 04:58:53.835 INFO  (searcherExecutor-7-thread-1-processing-x:coreProva) [   x:coreProva] o.a.s.h.c.SpellCheckComponent Loading spell index for spellchecker: default
2018-06-19 04:58:53.839 INFO  (searcherExecutor-7-thread-1-processing-x:coreProva) [   x:coreProva] o.a.s.c.SolrCore [coreProva] Registered new searcher Searcher@4b73cec9[coreProva] main{ExitableDirectoryReader(UninvertingDirectoryReader())}
2018-06-19 04:58:53.947 INFO  (coreLoadExecutor-6-thread-2) [   x:libriSolr] o.a.s.s.SolrIndexSearcher Opening [Searcher@1b87cb[libriSolr] main]
2018-06-19 04:58:53.948 INFO  (coreLoadExecutor-6-thread-2) [   x:libriSolr] o.a.s.r.ManagedResourceStorage File-based storage initialized to use dir: /home/renzo/rAlvaPrincipe/BookEx/Sviluppo/solr-7.0.0/server/solr/libriSolr/conf
2018-06-19 04:58:53.949 INFO  (coreLoadExecutor-6-thread-2) [   x:libriSolr] o.a.s.h.c.SpellCheckComponent Initializing spell checkers
2018-06-19 04:58:53.949 INFO  (coreLoadExecutor-6-thread-2) [   x:libriSolr] o.a.s.s.DirectSolrSpellChecker init: {name=default,field=_text_,classname=solr.DirectSolrSpellChecker,distanceMeasure=internal,accuracy=0.5,maxEdits=2,minPrefix=1,maxInspections=5,minQueryLength=4,maxQueryFrequency=0.01}
2018-06-19 04:58:53.950 INFO  (coreLoadExecutor-6-thread-2) [   x:libriSolr] o.a.s.h.ReplicationHandler Commits will be reserved for  10000
2018-06-19 04:58:53.951 INFO  (searcherExecutor-8-thread-1-processing-x:libriSolr) [   x:libriSolr] o.a.s.c.QuerySenderListener QuerySenderListener sending requests to Searcher@1b87cb[libriSolr] main{ExitableDirectoryReader(UninvertingDirectoryReader(Uninverting(_0(7.0.0):C1) Uninverting(_1(7.0.0):C1) Uninverting(_2(7.0.0):C1) Uninverting(_3(7.0.0):C1)))}
2018-06-19 04:58:53.951 INFO  (searcherExecutor-8-thread-1-processing-x:libriSolr) [   x:libriSolr] o.a.s.c.QuerySenderListener QuerySenderListener done.
2018-06-19 04:58:53.951 INFO  (searcherExecutor-8-thread-1-processing-x:libriSolr) [   x:libriSolr] o.a.s.h.c.SpellCheckComponent Loading spell index for spellchecker: default
2018-06-19 04:58:53.951 INFO  (searcherExecutor-8-thread-1-processing-x:libriSolr) [   x:libriSolr] o.a.s.c.SolrCore [libriSolr] Registered new searcher Searcher@1b87cb[libriSolr] main{ExitableDirectoryReader(UninvertingDirectoryReader(Uninverting(_0(7.0.0):C1) Uninverting(_1(7.0.0):C1) Uninverting(_2(7.0.0):C1) Uninverting(_3(7.0.0):C1)))}
2018-06-19 04:59:25.422 INFO  (qtp1205044462-17) [   x:libriSolr] o.a.s.c.S.Request [libriSolr]  webapp=/solr path=/select params={q=titolo:potter&start=0&rows=0&wt=javabin&version=2} hits=1 status=0 QTime=72
2018-06-19 04:59:25.475 INFO  (qtp1205044462-15) [   x:libriSolr] o.a.s.c.S.Request [libriSolr]  webapp=/solr path=/select params={q=titolo:potter&start=0&rows=1&wt=javabin&version=2} hits=1 status=0 QTime=0
2018-06-19 04:59:30.996 INFO  (qtp1205044462-14) [   x:libriSolr] o.a.s.c.S.Request [libriSolr]  webapp=/solr path=/select params={q=titolo:simon&start=0&rows=0&wt=javabin&version=2} hits=0 status=0 QTime=0
2018-06-19 04:59:31.000 INFO  (qtp1205044462-19) [   x:libriSolr] o.a.s.c.S.Request [libriSolr]  webapp=/solr path=/select params={q=titolo:simon&start=0&rows=0&wt=javabin&version=2} hits=0 status=0 QTime=0
2018-06-19 05:00:11.697 INFO  (qtp1205044462-21) [   x:libriSolr] o.a.s.c.S.Request [libriSolr]  webapp=/solr path=/select params={q=titolo:cacciatore&start=0&rows=0&wt=javabin&version=2} hits=1 status=0 QTime=1
2018-06-19 05:00:11.700 INFO  (qtp1205044462-13) [   x:libriSolr] o.a.s.c.S.Request [libriSolr]  webapp=/solr path=/select params={q=titolo:cacciatore&start=0&rows=1&wt=javabin&version=2} hits=1 status=0 QTime=0
