2018-06-18 22:13:51.049 INFO  (main) [   ] o.e.j.s.Server jetty-9.3.14.v20161028
2018-06-18 22:13:51.335 INFO  (main) [   ] o.a.s.s.SolrDispatchFilter  ___      _       Welcome to Apache Solr™ version 7.0.0
2018-06-18 22:13:51.336 INFO  (main) [   ] o.a.s.s.SolrDispatchFilter / __| ___| |_ _   Starting in standalone mode on port 8983
2018-06-18 22:13:51.336 INFO  (main) [   ] o.a.s.s.SolrDispatchFilter \__ \/ _ \ | '_|  Install dir: /home/renzo/Programs/solr-7.0.0, Default config dir: /home/renzo/Programs/solr-7.0.0/server/solr/configsets/_default/conf
2018-06-18 22:13:51.346 INFO  (main) [   ] o.a.s.s.SolrDispatchFilter |___/\___/_|_|    Start time: 2018-06-18T22:13:51.336Z
2018-06-18 22:13:51.347 INFO  (main) [   ] o.a.s.s.StartupLoggingUtils Property solr.log.muteconsole given. Muting ConsoleAppender named CONSOLE
2018-06-18 22:13:51.356 INFO  (main) [   ] o.a.s.c.SolrResourceLoader Using system property solr.solr.home: /home/renzo/Programs/solr-7.0.0/server/solr
2018-06-18 22:13:51.362 INFO  (main) [   ] o.a.s.c.SolrXmlConfig Loading container configuration from /home/renzo/Programs/solr-7.0.0/server/solr/solr.xml
2018-06-18 22:13:51.791 INFO  (main) [   ] o.a.s.c.CorePropertiesLocator Found 2 core definitions underneath /home/renzo/Programs/solr-7.0.0/server/solr
2018-06-18 22:13:51.795 INFO  (main) [   ] o.a.s.c.CorePropertiesLocator Cores are: [coreProva, libriSolr]
2018-06-18 22:13:51.841 INFO  (main) [   ] o.e.j.s.Server Started @1155ms
2018-06-18 22:13:51.853 INFO  (coreLoadExecutor-6-thread-2) [   x:libriSolr] o.a.s.c.SolrResourceLoader [libriSolr] Added 51 libs to classloader, from paths: [/home/renzo/Programs/solr-7.0.0/contrib/clustering/lib, /home/renzo/Programs/solr-7.0.0/contrib/extraction/lib, /home/renzo/Programs/solr-7.0.0/contrib/langid/lib, /home/renzo/Programs/solr-7.0.0/contrib/velocity/lib, /home/renzo/Programs/solr-7.0.0/dist]
2018-06-18 22:13:51.853 INFO  (coreLoadExecutor-6-thread-1) [   x:coreProva] o.a.s.c.SolrResourceLoader [coreProva] Added 51 libs to classloader, from paths: [/home/renzo/Programs/solr-7.0.0/contrib/clustering/lib, /home/renzo/Programs/solr-7.0.0/contrib/extraction/lib, /home/renzo/Programs/solr-7.0.0/contrib/langid/lib, /home/renzo/Programs/solr-7.0.0/contrib/velocity/lib, /home/renzo/Programs/solr-7.0.0/dist]
2018-06-18 22:13:51.976 INFO  (coreLoadExecutor-6-thread-1) [   x:coreProva] o.a.s.c.SolrConfig Using Lucene MatchVersion: 7.0.0
2018-06-18 22:13:51.984 INFO  (coreLoadExecutor-6-thread-2) [   x:libriSolr] o.a.s.c.SolrConfig Using Lucene MatchVersion: 7.0.0
2018-06-18 22:13:52.095 INFO  (coreLoadExecutor-6-thread-1) [   x:coreProva] o.a.s.s.IndexSchema [coreProva] Schema name=schemaSolr
2018-06-18 22:13:52.122 INFO  (coreLoadExecutor-6-thread-2) [   x:libriSolr] o.a.s.s.IndexSchema [libriSolr] Schema name=schemaSolr
2018-06-18 22:13:52.150 WARN  (coreLoadExecutor-6-thread-1) [   x:coreProva] o.a.s.c.SolrResourceLoader Solr loaded a deprecated plugin/analysis class [solr.TrieIntField]. Please consult documentation how to replace it accordingly.
2018-06-18 22:13:52.150 WARN  (coreLoadExecutor-6-thread-2) [   x:libriSolr] o.a.s.c.SolrResourceLoader Solr loaded a deprecated plugin/analysis class [solr.TrieIntField]. Please consult documentation how to replace it accordingly.
2018-06-18 22:13:52.153 WARN  (coreLoadExecutor-6-thread-2) [   x:libriSolr] o.a.s.c.SolrResourceLoader Solr loaded a deprecated plugin/analysis class [solr.TrieLongField]. Please consult documentation how to replace it accordingly.
2018-06-18 22:13:52.153 WARN  (coreLoadExecutor-6-thread-1) [   x:coreProva] o.a.s.c.SolrResourceLoader Solr loaded a deprecated plugin/analysis class [solr.TrieLongField]. Please consult documentation how to replace it accordingly.
2018-06-18 22:13:52.170 WARN  (coreLoadExecutor-6-thread-2) [   x:libriSolr] o.a.s.c.SolrResourceLoader Solr loaded a deprecated plugin/analysis class [solr.WordDelimiterFilterFactory]. Please consult documentation how to replace it accordingly.
2018-06-18 22:13:52.215 INFO  (coreLoadExecutor-6-thread-1) [   x:coreProva] o.a.s.s.IndexSchema Loaded schema schemaSolr/1.5 with uniqueid field idDocument
2018-06-18 22:13:52.215 INFO  (coreLoadExecutor-6-thread-2) [   x:libriSolr] o.a.s.s.IndexSchema Loaded schema schemaSolr/1.5 with uniqueid field isbn
2018-06-18 22:13:52.215 INFO  (coreLoadExecutor-6-thread-1) [   x:coreProva] o.a.s.c.CoreContainer Creating SolrCore 'coreProva' using configuration from instancedir /home/renzo/Programs/solr-7.0.0/server/solr/coreProva, trusted=true
2018-06-18 22:13:52.215 INFO  (coreLoadExecutor-6-thread-2) [   x:libriSolr] o.a.s.c.CoreContainer Creating SolrCore 'libriSolr' using configuration from instancedir /home/renzo/Programs/solr-7.0.0/server/solr/libriSolr, trusted=true
2018-06-18 22:13:52.245 INFO  (coreLoadExecutor-6-thread-1) [   x:coreProva] o.a.s.c.SolrCore solr.RecoveryStrategy.Builder
2018-06-18 22:13:52.245 INFO  (coreLoadExecutor-6-thread-2) [   x:libriSolr] o.a.s.c.SolrCore solr.RecoveryStrategy.Builder
2018-06-18 22:13:52.249 INFO  (coreLoadExecutor-6-thread-2) [   x:libriSolr] o.a.s.c.SolrCore [[libriSolr] ] Opening new SolrCore at [/home/renzo/Programs/solr-7.0.0/server/solr/libriSolr], dataDir=[/home/renzo/Programs/solr-7.0.0/server/solr/libriSolr/data/]
2018-06-18 22:13:52.249 INFO  (coreLoadExecutor-6-thread-1) [   x:coreProva] o.a.s.c.SolrCore [[coreProva] ] Opening new SolrCore at [/home/renzo/Programs/solr-7.0.0/server/solr/coreProva], dataDir=[/home/renzo/Programs/solr-7.0.0/server/solr/coreProva/data/]
2018-06-18 22:13:52.276 INFO  (coreLoadExecutor-6-thread-1) [   x:coreProva] o.a.s.r.XSLTResponseWriter xsltCacheLifetimeSeconds=5
2018-06-18 22:13:52.386 INFO  (coreLoadExecutor-6-thread-2) [   x:libriSolr] o.a.s.r.XSLTResponseWriter xsltCacheLifetimeSeconds=5
2018-06-18 22:13:52.497 INFO  (coreLoadExecutor-6-thread-1) [   x:coreProva] o.a.s.u.UpdateHandler Using UpdateLog implementation: org.apache.solr.update.UpdateLog
2018-06-18 22:13:52.497 INFO  (coreLoadExecutor-6-thread-2) [   x:libriSolr] o.a.s.u.UpdateHandler Using UpdateLog implementation: org.apache.solr.update.UpdateLog
2018-06-18 22:13:52.497 INFO  (coreLoadExecutor-6-thread-1) [   x:coreProva] o.a.s.u.UpdateLog Initializing UpdateLog: dataDir= defaultSyncLevel=FLUSH numRecordsToKeep=100 maxNumLogsToKeep=10 numVersionBuckets=65536
2018-06-18 22:13:52.497 INFO  (coreLoadExecutor-6-thread-2) [   x:libriSolr] o.a.s.u.UpdateLog Initializing UpdateLog: dataDir= defaultSyncLevel=FLUSH numRecordsToKeep=100 maxNumLogsToKeep=10 numVersionBuckets=65536
2018-06-18 22:13:52.509 INFO  (coreLoadExecutor-6-thread-1) [   x:coreProva] o.a.s.u.CommitTracker Hard AutoCommit: if uncommited for 15000ms; 
2018-06-18 22:13:52.509 INFO  (coreLoadExecutor-6-thread-2) [   x:libriSolr] o.a.s.u.CommitTracker Hard AutoCommit: if uncommited for 15000ms; 
2018-06-18 22:13:52.509 INFO  (coreLoadExecutor-6-thread-1) [   x:coreProva] o.a.s.u.CommitTracker Soft AutoCommit: disabled
2018-06-18 22:13:52.509 INFO  (coreLoadExecutor-6-thread-2) [   x:libriSolr] o.a.s.u.CommitTracker Soft AutoCommit: disabled
2018-06-18 22:13:52.525 INFO  (coreLoadExecutor-6-thread-1) [   x:coreProva] o.a.s.s.SolrIndexSearcher Opening [Searcher@52f2eb97[coreProva] main]
2018-06-18 22:13:52.525 INFO  (coreLoadExecutor-6-thread-2) [   x:libriSolr] o.a.s.s.SolrIndexSearcher Opening [Searcher@76497115[libriSolr] main]
2018-06-18 22:13:52.533 INFO  (coreLoadExecutor-6-thread-1) [   x:coreProva] o.a.s.r.ManagedResourceStorage File-based storage initialized to use dir: /home/renzo/Programs/solr-7.0.0/server/solr/coreProva/conf
2018-06-18 22:13:52.533 INFO  (coreLoadExecutor-6-thread-2) [   x:libriSolr] o.a.s.r.ManagedResourceStorage File-based storage initialized to use dir: /home/renzo/Programs/solr-7.0.0/server/solr/libriSolr/conf
2018-06-18 22:13:52.545 INFO  (coreLoadExecutor-6-thread-1) [   x:coreProva] o.a.s.h.c.SpellCheckComponent Initializing spell checkers
2018-06-18 22:13:52.545 INFO  (coreLoadExecutor-6-thread-2) [   x:libriSolr] o.a.s.h.c.SpellCheckComponent Initializing spell checkers
2018-06-18 22:13:52.549 INFO  (coreLoadExecutor-6-thread-1) [   x:coreProva] o.a.s.s.DirectSolrSpellChecker init: {name=default,field=_text_,classname=solr.DirectSolrSpellChecker,distanceMeasure=internal,accuracy=0.5,maxEdits=2,minPrefix=1,maxInspections=5,minQueryLength=4,maxQueryFrequency=0.01}
2018-06-18 22:13:52.549 INFO  (coreLoadExecutor-6-thread-2) [   x:libriSolr] o.a.s.s.DirectSolrSpellChecker init: {name=default,field=_text_,classname=solr.DirectSolrSpellChecker,distanceMeasure=internal,accuracy=0.5,maxEdits=2,minPrefix=1,maxInspections=5,minQueryLength=4,maxQueryFrequency=0.01}
2018-06-18 22:13:52.559 INFO  (coreLoadExecutor-6-thread-1) [   x:coreProva] o.a.s.h.ReplicationHandler Commits will be reserved for  10000
2018-06-18 22:13:52.559 INFO  (coreLoadExecutor-6-thread-2) [   x:libriSolr] o.a.s.h.ReplicationHandler Commits will be reserved for  10000
2018-06-18 22:13:52.588 INFO  (searcherExecutor-8-thread-1-processing-x:libriSolr) [   x:libriSolr] o.a.s.c.QuerySenderListener QuerySenderListener sending requests to Searcher@76497115[libriSolr] main{ExitableDirectoryReader(UninvertingDirectoryReader())}
2018-06-18 22:13:52.588 INFO  (searcherExecutor-7-thread-1-processing-x:coreProva) [   x:coreProva] o.a.s.c.QuerySenderListener QuerySenderListener sending requests to Searcher@52f2eb97[coreProva] main{ExitableDirectoryReader(UninvertingDirectoryReader())}
2018-06-18 22:13:52.588 INFO  (searcherExecutor-8-thread-1-processing-x:libriSolr) [   x:libriSolr] o.a.s.c.QuerySenderListener QuerySenderListener done.
2018-06-18 22:13:52.588 INFO  (searcherExecutor-7-thread-1-processing-x:coreProva) [   x:coreProva] o.a.s.c.QuerySenderListener QuerySenderListener done.
2018-06-18 22:13:52.588 INFO  (searcherExecutor-8-thread-1-processing-x:libriSolr) [   x:libriSolr] o.a.s.h.c.SpellCheckComponent Loading spell index for spellchecker: default
2018-06-18 22:13:52.588 INFO  (searcherExecutor-7-thread-1-processing-x:coreProva) [   x:coreProva] o.a.s.h.c.SpellCheckComponent Loading spell index for spellchecker: default
2018-06-18 22:13:52.592 INFO  (searcherExecutor-8-thread-1-processing-x:libriSolr) [   x:libriSolr] o.a.s.c.SolrCore [libriSolr] Registered new searcher Searcher@76497115[libriSolr] main{ExitableDirectoryReader(UninvertingDirectoryReader())}
2018-06-18 22:13:52.592 INFO  (searcherExecutor-7-thread-1-processing-x:coreProva) [   x:coreProva] o.a.s.c.SolrCore [coreProva] Registered new searcher Searcher@52f2eb97[coreProva] main{ExitableDirectoryReader(UninvertingDirectoryReader())}
2018-06-18 22:13:52.592 INFO  (coreLoadExecutor-6-thread-1) [   x:coreProva] o.a.s.u.UpdateLog Could not find max version in index or recent updates, using new clock 1603650225535188992
2018-06-18 22:13:52.592 INFO  (coreLoadExecutor-6-thread-2) [   x:libriSolr] o.a.s.u.UpdateLog Could not find max version in index or recent updates, using new clock 1603650225535188992
2018-06-18 22:31:02.446 INFO  (qtp1205044462-15) [   x:libriSolr] o.a.s.u.p.LogUpdateProcessorFactory [libriSolr]  webapp=/solr path=/update params={wt=javabin&version=2}{add=[1625585985 (1603651305345122304)]} 0 95
2018-06-18 22:31:02.474 INFO  (qtp1205044462-17) [   x:libriSolr] o.a.s.u.DirectUpdateHandler2 start commit{_version_=1603651305444737024,optimize=false,openSearcher=true,waitSearcher=true,expungeDeletes=false,softCommit=false,prepareCommit=false}
2018-06-18 22:31:02.474 INFO  (qtp1205044462-17) [   x:libriSolr] o.a.s.u.SolrIndexWriter Calling setCommitData with IW:org.apache.solr.update.SolrIndexWriter@174d7fe2 commitCommandVersion:1603651305444737024
2018-06-18 22:31:03.061 INFO  (qtp1205044462-17) [   x:libriSolr] o.a.s.s.SolrIndexSearcher Opening [Searcher@a97629f[libriSolr] main]
2018-06-18 22:31:03.063 INFO  (qtp1205044462-17) [   x:libriSolr] o.a.s.u.DirectUpdateHandler2 end_commit_flush
2018-06-18 22:31:03.063 INFO  (searcherExecutor-8-thread-1-processing-x:libriSolr) [   x:libriSolr] o.a.s.c.QuerySenderListener QuerySenderListener sending requests to Searcher@a97629f[libriSolr] main{ExitableDirectoryReader(UninvertingDirectoryReader(Uninverting(_0(7.0.0):C1)))}
2018-06-18 22:31:03.063 INFO  (searcherExecutor-8-thread-1-processing-x:libriSolr) [   x:libriSolr] o.a.s.c.QuerySenderListener QuerySenderListener done.
2018-06-18 22:31:03.064 INFO  (searcherExecutor-8-thread-1-processing-x:libriSolr) [   x:libriSolr] o.a.s.c.SolrCore [libriSolr] Registered new searcher Searcher@a97629f[libriSolr] main{ExitableDirectoryReader(UninvertingDirectoryReader(Uninverting(_0(7.0.0):C1)))}
2018-06-18 22:31:03.064 INFO  (qtp1205044462-17) [   x:libriSolr] o.a.s.u.p.LogUpdateProcessorFactory [libriSolr]  webapp=/solr path=/update params={waitSearcher=true&commit=true&softCommit=false&wt=javabin&version=2}{commit=} 0 591
2018-06-18 22:31:26.948 INFO  (qtp1205044462-16) [   x:libriSolr] o.a.s.c.S.Request [libriSolr]  webapp=/solr path=/select params={q=titolo:120&start=0&rows=0&wt=javabin&version=2} hits=1 status=0 QTime=22
2018-06-18 22:31:26.955 INFO  (qtp1205044462-19) [   x:libriSolr] o.a.s.c.S.Request [libriSolr]  webapp=/solr path=/select params={q=titolo:120&start=0&rows=1&wt=javabin&version=2} hits=1 status=0 QTime=0
2018-06-18 22:32:26.602 INFO  (qtp1205044462-21) [   x:libriSolr] o.a.s.c.S.Request [libriSolr]  webapp=/solr path=/select params={q=titolo:days&start=0&rows=0&wt=javabin&version=2} hits=1 status=0 QTime=0
2018-06-18 22:32:26.605 INFO  (qtp1205044462-20) [   x:libriSolr] o.a.s.c.S.Request [libriSolr]  webapp=/solr path=/select params={q=titolo:days&start=0&rows=1&wt=javabin&version=2} hits=1 status=0 QTime=0
2018-06-18 22:34:30.072 INFO  (qtp1205044462-17) [   x:libriSolr] o.a.s.u.p.LogUpdateProcessorFactory [libriSolr]  webapp=/solr path=/update params={wt=javabin&version=2}{add=[8856609940 (1603651523124920320)]} 0 2
2018-06-18 22:34:30.087 INFO  (qtp1205044462-16) [   x:libriSolr] o.a.s.u.DirectUpdateHandler2 start commit{_version_=1603651523142746112,optimize=false,openSearcher=true,waitSearcher=true,expungeDeletes=false,softCommit=false,prepareCommit=false}
2018-06-18 22:34:30.087 INFO  (qtp1205044462-16) [   x:libriSolr] o.a.s.u.SolrIndexWriter Calling setCommitData with IW:org.apache.solr.update.SolrIndexWriter@174d7fe2 commitCommandVersion:1603651523142746112
2018-06-18 22:34:30.602 INFO  (qtp1205044462-16) [   x:libriSolr] o.a.s.s.SolrIndexSearcher Opening [Searcher@13400187[libriSolr] main]
2018-06-18 22:34:30.603 INFO  (qtp1205044462-16) [   x:libriSolr] o.a.s.u.DirectUpdateHandler2 end_commit_flush
2018-06-18 22:34:30.603 INFO  (searcherExecutor-8-thread-1-processing-x:libriSolr) [   x:libriSolr] o.a.s.c.QuerySenderListener QuerySenderListener sending requests to Searcher@13400187[libriSolr] main{ExitableDirectoryReader(UninvertingDirectoryReader(Uninverting(_0(7.0.0):C1) Uninverting(_1(7.0.0):C1)))}
2018-06-18 22:34:30.603 INFO  (searcherExecutor-8-thread-1-processing-x:libriSolr) [   x:libriSolr] o.a.s.c.QuerySenderListener QuerySenderListener done.
2018-06-18 22:34:30.604 INFO  (searcherExecutor-8-thread-1-processing-x:libriSolr) [   x:libriSolr] o.a.s.c.SolrCore [libriSolr] Registered new searcher Searcher@13400187[libriSolr] main{ExitableDirectoryReader(UninvertingDirectoryReader(Uninverting(_0(7.0.0):C1) Uninverting(_1(7.0.0):C1)))}
2018-06-18 22:34:30.604 INFO  (qtp1205044462-16) [   x:libriSolr] o.a.s.u.p.LogUpdateProcessorFactory [libriSolr]  webapp=/solr path=/update params={waitSearcher=true&commit=true&softCommit=false&wt=javabin&version=2}{commit=} 0 517
2018-06-18 22:34:45.734 INFO  (qtp1205044462-19) [   x:libriSolr] o.a.s.c.S.Request [libriSolr]  webapp=/solr path=/select params={q=titolo:"il+cacciatore"&start=0&rows=0&wt=javabin&version=2} hits=1 status=0 QTime=8
2018-06-18 22:34:45.740 INFO  (qtp1205044462-15) [   x:libriSolr] o.a.s.c.S.Request [libriSolr]  webapp=/solr path=/select params={q=titolo:"il+cacciatore"&start=0&rows=1&wt=javabin&version=2} hits=1 status=0 QTime=0
2018-06-18 22:38:08.757 INFO  (qtp1205044462-16) [   x:libriSolr] o.a.s.c.S.Request [libriSolr]  webapp=/solr path=/select params={q=titolo:"il+cacciatore"&start=0&rows=0&wt=javabin&version=2} hits=1 status=0 QTime=0
2018-06-18 22:38:08.780 INFO  (qtp1205044462-19) [   x:libriSolr] o.a.s.c.S.Request [libriSolr]  webapp=/solr path=/select params={q=titolo:"il+cacciatore"&start=0&rows=1&wt=javabin&version=2} hits=1 status=0 QTime=0
2018-06-18 22:38:27.723 INFO  (qtp1205044462-15) [   x:libriSolr] o.a.s.c.S.Request [libriSolr]  webapp=/solr path=/select params={q=titolo:"il+cacciatore"&start=0&rows=0&wt=javabin&version=2} hits=1 status=0 QTime=0
2018-06-18 22:38:27.726 INFO  (qtp1205044462-21) [   x:libriSolr] o.a.s.c.S.Request [libriSolr]  webapp=/solr path=/select params={q=titolo:"il+cacciatore"&start=0&rows=1&wt=javabin&version=2} hits=1 status=0 QTime=0
2018-06-18 22:43:06.609 INFO  (qtp1205044462-16) [   x:libriSolr] o.a.s.c.S.Request [libriSolr]  webapp=/solr path=/select params={q=titolo:"il+cacciatore"&start=0&rows=0&wt=javabin&version=2} hits=1 status=0 QTime=0
2018-06-18 22:43:06.613 INFO  (qtp1205044462-19) [   x:libriSolr] o.a.s.c.S.Request [libriSolr]  webapp=/solr path=/select params={q=titolo:"il+cacciatore"&start=0&rows=1&wt=javabin&version=2} hits=1 status=0 QTime=0
2018-06-18 22:44:50.906 INFO  (qtp1205044462-19) [   x:libriSolr] o.a.s.c.S.Request [libriSolr]  webapp=/solr path=/select params={q=titolo:"il+cacciatore"&start=0&rows=0&wt=javabin&version=2} hits=1 status=0 QTime=0
2018-06-18 22:44:50.932 INFO  (qtp1205044462-21) [   x:libriSolr] o.a.s.c.S.Request [libriSolr]  webapp=/solr path=/select params={q=titolo:"il+cacciatore"&start=0&rows=1&wt=javabin&version=2} hits=1 status=0 QTime=0
2018-06-18 22:45:10.861 INFO  (qtp1205044462-22) [   x:libriSolr] o.a.s.c.S.Request [libriSolr]  webapp=/solr path=/select params={q=titolo:"il+cacciatore"&start=0&rows=0&wt=javabin&version=2} hits=1 status=0 QTime=0
2018-06-18 22:45:10.865 INFO  (qtp1205044462-15) [   x:libriSolr] o.a.s.c.S.Request [libriSolr]  webapp=/solr path=/select params={q=titolo:"il+cacciatore"&start=0&rows=1&wt=javabin&version=2} hits=1 status=0 QTime=0
2018-06-18 22:48:31.875 INFO  (qtp1205044462-21) [   x:libriSolr] o.a.s.c.S.Request [libriSolr]  webapp=/solr path=/select params={q=titolo:"il+cacciatore"&start=0&rows=0&wt=javabin&version=2} hits=1 status=0 QTime=0
2018-06-18 22:48:31.894 INFO  (qtp1205044462-22) [   x:libriSolr] o.a.s.c.S.Request [libriSolr]  webapp=/solr path=/select params={q=titolo:"il+cacciatore"&start=0&rows=1&wt=javabin&version=2} hits=1 status=0 QTime=0
2018-06-18 22:49:48.948 INFO  (qtp1205044462-13) [   x:libriSolr] o.a.s.c.S.Request [libriSolr]  webapp=/solr path=/select params={q=titolo:"il+cacciatore"&start=0&rows=0&wt=javabin&version=2} hits=1 status=0 QTime=0
2018-06-18 22:49:48.969 INFO  (qtp1205044462-21) [   x:libriSolr] o.a.s.c.S.Request [libriSolr]  webapp=/solr path=/select params={q=titolo:"il+cacciatore"&start=0&rows=1&wt=javabin&version=2} hits=1 status=0 QTime=0
2018-06-18 22:50:09.822 INFO  (qtp1205044462-22) [   x:libriSolr] o.a.s.c.S.Request [libriSolr]  webapp=/solr path=/select params={q=titolo:"il+cacciatore"&start=0&rows=0&wt=javabin&version=2} hits=1 status=0 QTime=0
2018-06-18 22:50:09.826 INFO  (qtp1205044462-15) [   x:libriSolr] o.a.s.c.S.Request [libriSolr]  webapp=/solr path=/select params={q=titolo:"il+cacciatore"&start=0&rows=1&wt=javabin&version=2} hits=1 status=0 QTime=0
2018-06-18 22:50:42.329 INFO  (qtp1205044462-19) [   x:libriSolr] o.a.s.u.p.LogUpdateProcessorFactory [libriSolr]  webapp=/solr path=/update params={wt=javabin&version=2}{add=[9780958578349 (1603652542610276352)]} 0 1
2018-06-18 22:50:42.333 INFO  (qtp1205044462-17) [   x:libriSolr] o.a.s.u.DirectUpdateHandler2 start commit{_version_=1603652542616567808,optimize=false,openSearcher=true,waitSearcher=true,expungeDeletes=false,softCommit=false,prepareCommit=false}
2018-06-18 22:50:42.333 INFO  (qtp1205044462-17) [   x:libriSolr] o.a.s.u.SolrIndexWriter Calling setCommitData with IW:org.apache.solr.update.SolrIndexWriter@174d7fe2 commitCommandVersion:1603652542616567808
2018-06-18 22:50:42.940 INFO  (qtp1205044462-17) [   x:libriSolr] o.a.s.s.SolrIndexSearcher Opening [Searcher@7a602127[libriSolr] main]
2018-06-18 22:50:42.941 INFO  (qtp1205044462-17) [   x:libriSolr] o.a.s.u.DirectUpdateHandler2 end_commit_flush
2018-06-18 22:50:42.941 INFO  (searcherExecutor-8-thread-1-processing-x:libriSolr) [   x:libriSolr] o.a.s.c.QuerySenderListener QuerySenderListener sending requests to Searcher@7a602127[libriSolr] main{ExitableDirectoryReader(UninvertingDirectoryReader(Uninverting(_0(7.0.0):C1) Uninverting(_1(7.0.0):C1) Uninverting(_2(7.0.0):C1)))}
2018-06-18 22:50:42.941 INFO  (searcherExecutor-8-thread-1-processing-x:libriSolr) [   x:libriSolr] o.a.s.c.QuerySenderListener QuerySenderListener done.
2018-06-18 22:50:42.941 INFO  (searcherExecutor-8-thread-1-processing-x:libriSolr) [   x:libriSolr] o.a.s.c.SolrCore [libriSolr] Registered new searcher Searcher@7a602127[libriSolr] main{ExitableDirectoryReader(UninvertingDirectoryReader(Uninverting(_0(7.0.0):C1) Uninverting(_1(7.0.0):C1) Uninverting(_2(7.0.0):C1)))}
2018-06-18 22:50:42.942 INFO  (qtp1205044462-17) [   x:libriSolr] o.a.s.u.p.LogUpdateProcessorFactory [libriSolr]  webapp=/solr path=/update params={waitSearcher=true&commit=true&softCommit=false&wt=javabin&version=2}{commit=} 0 608
2018-06-18 22:50:55.775 INFO  (qtp1205044462-13) [   x:libriSolr] o.a.s.c.S.Request [libriSolr]  webapp=/solr path=/select params={q=titolo:hell&start=0&rows=0&wt=javabin&version=2} hits=1 status=0 QTime=0
2018-06-18 22:50:55.779 INFO  (qtp1205044462-21) [   x:libriSolr] o.a.s.c.S.Request [libriSolr]  webapp=/solr path=/select params={q=titolo:hell&start=0&rows=1&wt=javabin&version=2} hits=1 status=0 QTime=0
2018-06-18 22:51:02.400 INFO  (qtp1205044462-22) [   x:libriSolr] o.a.s.c.S.Request [libriSolr]  webapp=/solr path=/select params={q=titolo:hell&start=0&rows=0&wt=javabin&version=2} hits=1 status=0 QTime=0
2018-06-18 22:51:02.404 INFO  (qtp1205044462-15) [   x:libriSolr] o.a.s.c.S.Request [libriSolr]  webapp=/solr path=/select params={q=titolo:hell&start=0&rows=1&wt=javabin&version=2} hits=1 status=0 QTime=0
2018-06-18 22:55:59.109 INFO  (qtp1205044462-13) [   x:libriSolr] o.a.s.c.S.Request [libriSolr]  webapp=/solr path=/select params={q=titolo:hell&start=0&rows=0&wt=javabin&version=2} hits=1 status=0 QTime=0
2018-06-18 22:55:59.112 INFO  (qtp1205044462-21) [   x:libriSolr] o.a.s.c.S.Request [libriSolr]  webapp=/solr path=/select params={q=titolo:hell&start=0&rows=1&wt=javabin&version=2} hits=1 status=0 QTime=0
2018-06-18 22:56:37.110 INFO  (qtp1205044462-22) [   x:libriSolr] o.a.s.u.p.LogUpdateProcessorFactory [libriSolr]  webapp=/solr path=/update params={wt=javabin&version=2}{add=[9781408883730 (1603652914625118208)]} 0 2
2018-06-18 22:56:37.113 INFO  (qtp1205044462-15) [   x:libriSolr] o.a.s.u.DirectUpdateHandler2 start commit{_version_=1603652914630361088,optimize=false,openSearcher=true,waitSearcher=true,expungeDeletes=false,softCommit=false,prepareCommit=false}
2018-06-18 22:56:37.113 INFO  (qtp1205044462-15) [   x:libriSolr] o.a.s.u.SolrIndexWriter Calling setCommitData with IW:org.apache.solr.update.SolrIndexWriter@174d7fe2 commitCommandVersion:1603652914630361088
2018-06-18 22:56:37.645 INFO  (qtp1205044462-15) [   x:libriSolr] o.a.s.s.SolrIndexSearcher Opening [Searcher@476513f3[libriSolr] main]
2018-06-18 22:56:37.646 INFO  (searcherExecutor-8-thread-1-processing-x:libriSolr) [   x:libriSolr] o.a.s.c.QuerySenderListener QuerySenderListener sending requests to Searcher@476513f3[libriSolr] main{ExitableDirectoryReader(UninvertingDirectoryReader(Uninverting(_0(7.0.0):C1) Uninverting(_1(7.0.0):C1) Uninverting(_2(7.0.0):C1) Uninverting(_3(7.0.0):C1)))}
2018-06-18 22:56:37.646 INFO  (qtp1205044462-15) [   x:libriSolr] o.a.s.u.DirectUpdateHandler2 end_commit_flush
2018-06-18 22:56:37.646 INFO  (searcherExecutor-8-thread-1-processing-x:libriSolr) [   x:libriSolr] o.a.s.c.QuerySenderListener QuerySenderListener done.
2018-06-18 22:56:37.647 INFO  (searcherExecutor-8-thread-1-processing-x:libriSolr) [   x:libriSolr] o.a.s.c.SolrCore [libriSolr] Registered new searcher Searcher@476513f3[libriSolr] main{ExitableDirectoryReader(UninvertingDirectoryReader(Uninverting(_0(7.0.0):C1) Uninverting(_1(7.0.0):C1) Uninverting(_2(7.0.0):C1) Uninverting(_3(7.0.0):C1)))}
2018-06-18 22:56:37.647 INFO  (qtp1205044462-15) [   x:libriSolr] o.a.s.u.p.LogUpdateProcessorFactory [libriSolr]  webapp=/solr path=/update params={waitSearcher=true&commit=true&softCommit=false&wt=javabin&version=2}{commit=} 0 533
2018-06-18 22:56:49.520 INFO  (qtp1205044462-17) [   x:libriSolr] o.a.s.c.S.Request [libriSolr]  webapp=/solr path=/select params={q=titolo:potter&start=0&rows=0&wt=javabin&version=2} hits=1 status=0 QTime=1
2018-06-18 22:56:49.524 INFO  (qtp1205044462-14) [   x:libriSolr] o.a.s.c.S.Request [libriSolr]  webapp=/solr path=/select params={q=titolo:potter&start=0&rows=1&wt=javabin&version=2} hits=1 status=0 QTime=0
2018-06-18 23:00:28.175 INFO  (qtp1205044462-17) [   x:libriSolr] o.a.s.c.S.Request [libriSolr]  webapp=/solr path=/select params={q=titolo:potter&start=0&rows=0&wt=javabin&version=2} hits=1 status=0 QTime=0
2018-06-18 23:00:28.196 INFO  (qtp1205044462-14) [   x:libriSolr] o.a.s.c.S.Request [libriSolr]  webapp=/solr path=/select params={q=titolo:potter&start=0&rows=1&wt=javabin&version=2} hits=1 status=0 QTime=0
2018-06-18 23:00:41.105 INFO  (qtp1205044462-21) [   x:libriSolr] o.a.s.c.S.Request [libriSolr]  webapp=/solr path=/select params={q=titolo:potter&start=0&rows=0&wt=javabin&version=2} hits=1 status=0 QTime=0
2018-06-18 23:00:41.109 INFO  (qtp1205044462-13) [   x:libriSolr] o.a.s.c.S.Request [libriSolr]  webapp=/solr path=/select params={q=titolo:potter&start=0&rows=1&wt=javabin&version=2} hits=1 status=0 QTime=0
2018-06-18 23:01:04.896 INFO  (qtp1205044462-22) [   x:libriSolr] o.a.s.c.S.Request [libriSolr]  webapp=/solr path=/select params={q=titolo:potter&start=0&rows=0&wt=javabin&version=2} hits=1 status=0 QTime=0
2018-06-18 23:01:04.900 INFO  (qtp1205044462-20) [   x:libriSolr] o.a.s.c.S.Request [libriSolr]  webapp=/solr path=/select params={q=titolo:potter&start=0&rows=1&wt=javabin&version=2} hits=1 status=0 QTime=0
2018-06-18 23:02:54.965 INFO  (qtp1205044462-22) [   x:libriSolr] o.a.s.c.S.Request [libriSolr]  webapp=/solr path=/select params={q=titolo:potter&start=0&rows=0&wt=javabin&version=2} hits=1 status=0 QTime=0
2018-06-18 23:02:54.987 INFO  (qtp1205044462-20) [   x:libriSolr] o.a.s.c.S.Request [libriSolr]  webapp=/solr path=/select params={q=titolo:potter&start=0&rows=1&wt=javabin&version=2} hits=1 status=0 QTime=0
